…
`tq_get()` is the one-stop shop for retrieving data. The full list of get options are:

``` r
tq_get_options()
#> [1] "stock.prices"   "stock.index"    "dividends"      "splits"        
#> [5] "financials"     "economic.data"  "exchange.rates" "metal.prices"
```

Set `get = "stock.prices"` to get stock prices. Notice the output is *always* a `tibble`.

``` r
aapl_prices <- tq_get("AAPL", get = "stock.prices")
aapl_prices
#> # A tibble: 2,518 × 7
#>          date  open  high   low close    volume adjusted
#>        <date> <dbl> <dbl> <dbl> <dbl>     <dbl>    <dbl>
#> 1  2007-01-03 86.29 86.58 81.90 83.80 309579900 10.90416
#> 2  2007-01-04 84.05 85.95 83.82 85.66 211815100 11.14619
#> 3  2007-01-05 85.77 86.20 84.40 85.05 208685400 11.06681
#> 4  2007-01-08 85.96 86.53 85.28 85.47 199276700 11.12147
#> 5  2007-01-09 86.45 92.98 85.15 92.57 837324600 12.04533
#> 6  2007-01-10 94.75 97.80 93.45 97.00 738220000 12.62176
#> 7  2007-01-11 95.94 96.78 95.10 95.80 360063200 12.46562
#> 8  2007-01-12 94.59 95.06 93.23 94.62 328172600 12.31207
#> 9  2007-01-16 95.68 97.25 95.45 97.10 311019100 12.63477
#> 10 2007-01-17 97.56 97.60 94.82 94.95 411565000 12.35501
#> # ... with 2,508 more rows
```
…
You probably already know and love `tidyverse` packages like `dplyr`, `tidyr`, `purrr`, `readr`, and `tibble` along with `lubridate` for working with date and datetime. `tidyquant` works solely in tibbles, so all of the `tidyverse` functionality is intact.

A simple example inspired by [Kan Nishida's blog](https://blog.exploratory.io/introducing-time-series-analysis-with-dplyr-60683587cf8a#.w6pvyi3d2) shows the `dplyr` and `lubridate` capability: Say we want the growth in the stock over the past year. We can do this with `dplyr` operations.

Getting the last year is simple with `dplyr` and `lubridate`. We first `select` the date and adjusted price (adjusted for stock splits). We then `filter` using `lubridate` date functions. We can also get a baseline price using the `first` function. Growth and growth percent versus baseline columns can be added now. We tack on a final select statement to remove unnecessary columns. The final workflow looks like this:

``` r
aapl_prices %>%
    select(date, adjusted) %>%
    filter(date >= today() - years(1)) %>%
    mutate(baseline = first(adjusted),
           growth = adjusted - baseline,
           growth_pct = growth / baseline * 100) %>%
    select(-(baseline:growth))
#> # A tibble: 252 × 3
#>          date  adjusted growth_pct
#>        <date>     <dbl>      <dbl>
#> 1  2016-01-04 103.05706   0.000000
#> 2  2016-01-05 100.47452  -2.505932
#> 3  2016-01-06  98.50827  -4.413861
#> 4  2016-01-07  94.35077  -8.448032
#> 5  2016-01-08  94.84967  -7.963930
#> 6  2016-01-11  96.38550  -6.473659
#> 7  2016-01-12  97.78438  -5.116279
#> 8  2016-01-13  95.27031  -7.555766
#> 9  2016-01-14  97.35395  -5.533937
#> 10 2016-01-15  95.01597  -7.802565
#> # ... with 242 more rows
```
…
#### tq\_transform

`tq_transform()` returns a new data set that can either be in the same periodicity or a different periodicity as the original data set. Let's use `tq_transform` to transform the periodicity of the `aapl_prices`. The `quantmod` OHLC codes are used to select the open, high, low, close, and volume (OHLCV) columns, which are then sent to the transformation function, `xts::to.period`, for transformation to monthly periodicity. We now have a much smaller data set containing the monthly prices.

``` r
aapl_prices %>%
    tq_transform(ohlc_fun = OHLCV, transform_fun = to.period, period = "months")
#> # A tibble: 120 × 6
#>          date   open   high    low  close    volume
#>        <dttm>  <dbl>  <dbl>  <dbl>  <dbl>     <dbl>
#> 1  2007-01-31  84.86  86.00  84.35  85.73 214017300
#> 2  2007-02-28  83.00  85.60  83.00  84.61 229868800
#> 3  2007-03-30  94.28  94.68  92.75  92.91 150139500
#> 4  2007-04-30 100.09 101.00  99.67  99.80 154127400
#> 5  2007-05-31 120.07 122.17 119.54 121.19 324266600
#> 6  2007-06-29 121.97 124.00 121.09 122.04 284460400
#> 7  2007-07-31 142.97 143.48 131.52 131.76 440598200
#> 8  2007-08-31 139.49 139.65 137.41 138.48 219221800
#> 9  2007-09-28 153.44 154.60 152.75 153.47 153775300
#> 10 2007-10-31 187.63 190.12 184.95 189.95 208327700
#> # ... with 110 more rows
```

#### tq\_mutate

The cousin of `tq_transform()` is `tq_mutate()`. While `tq_transform()` produces a new, transformed data set, `tq_mutate()` modifies the existing data set. This is very useful for applying `TTR` functions like `BBands`, `MACD`, Moving Averages, etc. There is one caveat: the mutation must be in the same periodicity as the original data set (otherwise you can't add columns because the rows will not match up). Let's use `tq_mutate()` to add some Bollinger Bands and MACD using the closing prices (Cl in OHLC notation).

``` r
aapl_prices %>%
    tq_mutate(ohlc_fun = Cl, mutate_fun = MACD) %>%
    tq_mutate(ohlc_fun = HLC, mutate_fun = BBands)
#> # A tibble: 2,518 × 13
#>          date  open  high   low close    volume adjusted  macd signal
#>        <date> <dbl> <dbl> <dbl> <dbl>     <dbl>    <dbl> <dbl>  <dbl>
#> 1  2007-01-03 86.29 86.58 81.90 83.80 309579900 10.90416    NA     NA
#> 2  2007-01-04 84.05 85.95 83.82 85.66 211815100 11.14619    NA     NA
#> 3  2007-01-05 85.77 86.20 84.40 85.05 208685400 11.06681    NA     NA
#> 4  2007-01-08 85.96 86.53 85.28 85.47 199276700 11.12147    NA     NA
#> 5  2007-01-09 86.45 92.98 85.15 92.57 837324600 12.04533    NA     NA
#> 6  2007-01-10 94.75 97.80 93.45 97.00 738220000 12.62176    NA     NA
#> 7  2007-01-11 95.94 96.78 95.10 95.80 360063200 12.46562    NA     NA
#> 8  2007-01-12 94.59 95.06 93.23 94.62 328172600 12.31207    NA     NA
#> 9  2007-01-16 95.68 97.25 95.45 97.10 311019100 12.63477    NA     NA
#> 10 2007-01-17 97.56 97.60 94.82 94.95 411565000 12.35501    NA     NA
#> # ... with 2,508 more rows, and 4 more variables: dn <dbl>, mavg <dbl>,
#> #   up <dbl>, pctB <dbl>
```
…
