…
Set `x` as one of the options in the list of options above, and `get = "stock.index"` to get the desired stock index / exchange.


```r
tq_get("sp500", get = "stock.index")
```

```
## # A tibble: 501 × 2
##    symbol                   company
##     <chr>                     <chr>
## 1     MMM                        3M
## 2     ABT       ABBOTT LABORATORIES
## 3    ABBV                ABBVIE INC
## 4     ACN                 ACCENTURE
## 5    ATVI       ACTIVISION BLIZZARD
## 6     AYI             ACUITY BRANDS
## 7    ADBE             ADOBE SYSTEMS
## 8     AAP        ADVANCE AUTO PARTS
## 9     AET                     AETNA
## 10    AMG AFFILIATED MANAGERS GROUP
## # ... with 491 more rows
```

The data source is [www.marketvolume.com](http://www.marketvolume.com/indexes_exchanges/).

__Stock Prices, Dividends and Splits:__

The stock prices can be retrieved succinctly using `get = "stock.prices"`.  


```r
appl_prices  <- tq_get("AAPL", get = "stock.prices", from = " 1990-01-01")
appl_prices 
```

```
## # A tibble: 6,804 × 7
##          date   open   high   low  close   volume adjusted
##        <date>  <dbl>  <dbl> <dbl>  <dbl>    <dbl>    <dbl>
## 1  1990-01-02 35.250 37.500 35.00 37.250 45799600 1.132075
## 2  1990-01-03 38.000 38.000 37.50 37.500 51998800 1.139673
## 3  1990-01-04 38.250 38.750 37.25 37.625 55378400 1.143471
## 4  1990-01-05 37.750 38.250 37.00 37.750 30828000 1.147270
## 5  1990-01-08 37.500 38.000 37.00 38.000 25393200 1.154868
## 6  1990-01-09 38.000 38.000 37.00 37.625 21534800 1.143471
## 7  1990-01-10 37.625 37.625 35.75 36.000 49929600 1.094086
## 8  1990-01-11 36.250 36.250 34.50 34.500 52763200 1.048499
## 9  1990-01-12 34.250 34.750 33.75 34.500 42974400 1.048499
## 10 1990-01-15 34.500 35.750 34.25 34.250 40434800 1.040901
## # ... with 6,794 more rows
```


Dividends are obtained using `get = "dividends"`. 


```r
appl_divs <- tq_get("AAPL", get = "dividends", from = "1990-01-01")
appl_divs
```

```
## # A tibble: 42 × 2
##          date dividends
##        <date>     <dbl>
## 1  1990-02-16   0.00393
## 2  1990-05-21   0.00393
## 3  1990-08-20   0.00393
## 4  1990-11-16   0.00429
## 5  1991-02-15   0.00429
## 6  1991-05-20   0.00429
## 7  1991-08-19   0.00429
## 8  1991-11-18   0.00429
## 9  1992-02-14   0.00429
## 10 1992-06-01   0.00429
## # ... with 32 more rows
```
…
The statement information can be extracted by selecting (`dplyr::select()`) and filtering (`dplyr::filter()`) to the desired statement and unnesting (`tidyr::unnest()`) the results.


```r
fb_financials %>%
    filter(type == "IS") %>%
    select(annual) %>%
    unnest()
```

```
## # A tibble: 196 × 4
##    group             category       date value
##    <int>                <chr>     <date> <dbl>
## 1      1              Revenue 2015-12-31 17928
## 2      1              Revenue 2014-12-31 12466
## 3      1              Revenue 2013-12-31  7872
## 4      1              Revenue 2012-12-31  5089
## 5      2 Other Revenue, Total 2015-12-31    NA
## 6      2 Other Revenue, Total 2014-12-31    NA
## 7      2 Other Revenue, Total 2013-12-31    NA
## 8      2 Other Revenue, Total 2012-12-31    NA
## 9      3        Total Revenue 2015-12-31 17928
## 10     3        Total Revenue 2014-12-31 12466
## # ... with 186 more rows
```

A slightly more powerful example is looking at all quarterly statements together. This is easy to do with `unnest` and `spread` from the `tidyr` package.


```r
fb_financials %>%
    unnest(quarter) %>% 
    spread(key = date, value = value)
```

```
## # A tibble: 110 × 8
##     type group                         category `2015-09-30` `2015-12-31`
## *  <chr> <int>                            <chr>        <dbl>        <dbl>
## 1     BS     1               Cash & Equivalents         1621         2409
## 2     BS     2           Short Term Investments        11526        14322
## 3     BS     3  Cash and Short Term Investments        15834        18434
## 4     BS     4 Accounts Receivable - Trade, Net         2010         2559
## 5     BS     5              Receivables - Other           NA           NA
## 6     BS     6           Total Receivables, Net         2010         2559
## 7     BS     7                  Total Inventory           NA           NA
## 8     BS     8                 Prepaid Expenses         1295          659
## 9     BS     9      Other Current Assets, Total           NA           NA
## 10    BS    10             Total Current Assets        19139        21652
## # ... with 100 more rows, and 3 more variables: `2016-03-31` <dbl>,
## #   `2016-06-30` <dbl>, `2016-09-30` <dbl>
```
…
<a class="anchor" id="economic-data"></a>

__Economic Data__: 

A wealth of economic data can be extracted from the Federal Reserve Economic Data (FRED) database. The [WTI Crude Oil Prices](https://fred.stlouisfed.org/series/DCOILWTICO) are shown below.


```r
wti_price_usd <- tq_get("DCOILWTICO", get = "economic.data")
wti_price_usd 
```

```
## # A tibble: 2,867 × 2
##          date price
##        <date> <dbl>
## 1  2006-01-02    NA
## 2  2006-01-03 63.11
## 3  2006-01-04 63.41
## 4  2006-01-05 62.81
## 5  2006-01-06 64.21
## 6  2006-01-09 63.56
## 7  2006-01-10 63.41
## 8  2006-01-11 63.91
## 9  2006-01-12 63.96
## 10 2006-01-13 63.86
## # ... with 2,857 more rows
```
The FRED contains literally over 10K data sets that are free to use. See the [FRED categories](https://fred.stlouisfed.org/categories) to narrow down the data base and to get data codes. 


__Exchange Rates:__

Exchange rates are entered as currency pairs using "/" notation (e.g `"EUR/USD"`), and by setting `get = "exchange.rates"`. 


```r
eur_usd <- tq_get("EUR/USD", get = "exchange.rates", from = "2000-01-01")
eur_usd 
```

```
## # A tibble: 1,827 × 2
##          date exchange.rate
##        <date>         <dbl>
## 1  2011-12-30       1.29493
## 2  2011-12-31       1.29618
## 3  2012-01-01       1.29590
## 4  2012-01-02       1.29375
## 5  2012-01-03       1.30038
## 6  2012-01-04       1.30036
## 7  2012-01-05       1.28717
## 8  2012-01-06       1.27698
## 9  2012-01-07       1.27195
## 10 2012-01-08       1.27151
## # ... with 1,817 more rows
```
The data source is [Oanda](https://www.oanda.com/), and list of currencies to compare can be found on [Oanda's currency converter](https://www.oanda.com/currency/converter/). It may make more sense to get this data from the FRED (See [Economic Data](#economic-data)) since the max period for Oanda is 5-years.

__Metal Prices:__

Metal prices are very similar to stock prices. Set `get = "metal.prices"` along with the appropriate commodity symbol (e.g. XAU (gold) , XAG (silver), XPD (palladium), or XPT (platinum)). 


```r
plat_price_eur <- tq_get("plat", get = "metal.prices", 
                         from = "2000-01-01", base.currency = "EUR")
plat_price_eur 
```

```
## # A tibble: 1,827 × 2
##          date   price
##        <date>   <dbl>
## 1  2011-12-30 1081.91
## 2  2011-12-31 1080.87
## 3  2012-01-01 1081.11
## 4  2012-01-02 1085.99
## 5  2012-01-03 1080.45
## 6  2012-01-04 1080.47
## 7  2012-01-05 1091.55
## 8  2012-01-06 1100.26
## 9  2012-01-07 1104.61
## 10 2012-01-08 1097.12
## # ... with 1,817 more rows
```
…
Transform and mutate functions enable the `xts`, `quantmod` and `TTR` functions to shine (see [Leverage the Quantitative Power of `xts`, `quantmod` and `TTR`](#quant-power)):

__Transform Quantitative Data, `tq_transform()`:__ 

Transforms the results of `tq_get()`. The result is typically a different shape than the input (hence "transformed"), although this is not a requirement. An example is periodicity aggregation from daily to monthly.


```r
fb_prices <- tq_get("FB") 
fb_prices %>%
    tq_transform(x_fun = OHLCV, transform_fun = to.monthly)
```

```
## # A tibble: 56 × 6
##        date  open  high   low close    volume
##       <chr> <dbl> <dbl> <dbl> <dbl>     <dbl>
## 1  May 2012 28.55 29.67 26.83 29.60 111639200
## 2  Jun 2012 31.92 31.99 30.76 31.10  19526900
## 3  Jul 2012 23.37 23.37 21.61 21.71  56179400
## 4  Aug 2012 18.68 18.70 18.03 18.06  58764200
## 5  Sep 2012 20.57 21.95 20.50 21.66  65486000
## 6  Oct 2012 20.82 21.50 20.73 21.11  99378200
## 7  Nov 2012 27.26 28.00 26.76 28.00 127049600
## 8  Dec 2012 26.20 26.99 26.11 26.62  60374500
## 9  Jan 2013 29.15 31.47 28.74 30.98 190744900
## 10 Feb 2013 26.84 27.30 26.34 27.25  83027800
## # ... with 46 more rows
```
Let's go through what happened. `x_fun` is one of the various quantmod Open, High, Low, Close (OHLC) functions (see `?quantmod::OHLC`). The function returns a column or set of columns from data that are passed to the `transform_fun`. In example above, `OHLCV` selects the full list of prices and volumes from `data`, and sends this to the transform function, `to.monthly`, which transforms the periodicity from daily to monthly. Additional arguments can be passed to the `transform_fun` by way of `...`. 


__Mutate Quantitative Data, `tq_mutate()`:__ 

Adds a column or set of columns to the tibble with the calculated attributes (hence the original tibble is returned, mutated with the additional columns). An example is getting the `MACD` from `Cl` (close price), which mutates the original input by adding MACD and Signal columns. 


```r
fb_prices %>%
    tq_mutate(x_fun = Cl, mutate_fun = MACD)
```

```
## # A tibble: 1,162 × 9
##          date  open  high   low close    volume adjusted  macd signal
##        <date> <dbl> <dbl> <dbl> <dbl>     <dbl>    <dbl> <dbl>  <dbl>
## 1  2012-05-18 42.05 45.00 38.00 38.23 573576400    38.23    NA     NA
## 2  2012-05-21 36.53 36.66 33.00 34.03 168192700    34.03    NA     NA
## 3  2012-05-22 32.61 33.59 30.94 31.00 101786600    31.00    NA     NA
## 4  2012-05-23 31.37 32.50 31.36 32.00  73600000    32.00    NA     NA
## 5  2012-05-24 32.95 33.21 31.77 33.03  50237200    33.03    NA     NA
## 6  2012-05-25 32.90 32.95 31.11 31.91  37149800    31.91    NA     NA
## 7  2012-05-29 31.48 31.69 28.65 28.84  78063400    28.84    NA     NA
## 8  2012-05-30 28.70 29.55 27.86 28.19  57267900    28.19    NA     NA
## 9  2012-05-31 28.55 29.67 26.83 29.60 111639200    29.60    NA     NA
## 10 2012-06-01 28.89 29.15 27.39 27.72  41855500    27.72    NA     NA
## # ... with 1,152 more rows
```
…
1. Transformation functions that require two primary inputs (e.g. EVWMA, VWAP, etc) 
2. Data that is not in OHLC format. 

_Transformation with two primary inputs: _

EVWMA (exponential volume-weighted moving average) requires two inputs, price and volume, that are not in OHLC code format. To work with these columns, we can switch to the xy variants, `tq_transform_xy()` and `tq_mutate_xy()`. The only difference is instead of an `x_fun` argument, you use `.x` and `.y` arguments to pass the columns needed based on the `transform_fun` or `mutate_fun` documentation.


```r
fb_prices %>%
    tq_mutate_xy(.x = close, .y = volume, mutate_fun = EVWMA)
```

```
## # A tibble: 1,162 × 8
##          date  open  high   low close    volume adjusted    V1
##        <date> <dbl> <dbl> <dbl> <dbl>     <dbl>    <dbl> <dbl>
## 1  2012-05-18 42.05 45.00 38.00 38.23 573576400    38.23    NA
## 2  2012-05-21 36.53 36.66 33.00 34.03 168192700    34.03    NA
## 3  2012-05-22 32.61 33.59 30.94 31.00 101786600    31.00    NA
## 4  2012-05-23 31.37 32.50 31.36 32.00  73600000    32.00    NA
## 5  2012-05-24 32.95 33.21 31.77 33.03  50237200    33.03    NA
## 6  2012-05-25 32.90 32.95 31.11 31.91  37149800    31.91    NA
## 7  2012-05-29 31.48 31.69 28.65 28.84  78063400    28.84    NA
## 8  2012-05-30 28.70 29.55 27.86 28.19  57267900    28.19    NA
## 9  2012-05-31 28.55 29.67 26.83 29.60 111639200    29.60    NA
## 10 2012-06-01 28.89 29.15 27.39 27.72  41855500    27.72 27.72
## # ... with 1,152 more rows
```

_Working with non-OHLC data: _

Returns from FRED, Oanda, and other sources do not have open, high, low, close, and volume (OHLCV) format. The following example shows how to transform WTI Crude daily prices to monthly prices. Since we only have a single column to pass, set the `.x = price` and leave the `.y = NULL`. This sends the price column to the `to.period` transformation fuction. 


```r
wti_prices <- tq_get("DCOILWTICO", get = "economic.data") 
wti_prices %>%    
    tq_transform_xy(.x = price, transform_fun = to.period,
                    period = "months")
```

```
## # A tibble: 132 × 2
##          date price
##        <dttm> <dbl>
## 1  2006-01-31 67.86
## 2  2006-02-28 61.37
## 3  2006-03-31 66.25
## 4  2006-04-28 71.80
## 5  2006-05-31 71.42
## 6  2006-06-30 73.94
## 7  2006-07-31 74.56
## 8  2006-08-31 70.38
## 9  2006-09-29 62.90
## 10 2006-10-31 58.72
## # ... with 122 more rows
```
…
#### Example 1: Getting the max close price for each quarter.

The `xts::apply.quarterly()` function that is part of the period apply group can be used to apply functions by quarterly time segments. Because we are seeking a return structure that is on a different time scale than the input (quarterly versus daily), we need to use a transform function. We select `tq_transform` and pass the close price using OHLC format via `x_fun = Cl`, and we send this subset of the data to the `apply.quarterly` function via the `transform_fun` argument. Looking at the documentation for `apply.quarterly`, we see that we can pass a function to the argument, `FUN`. We want the maximum values, so we set `FUN = max`. The result is the quarters returned as a date and the maximum closing price during the quarter returned as a double. 


```r
AAPL %>%
    tq_transform(x_fun = Cl, transform_fun = apply.quarterly, FUN = max)
```

```
## # A tibble: 44 × 2
##          date  close
##        <dttm>  <dbl>
## 1  2006-03-31  85.59
## 2  2006-06-30  71.89
## 3  2006-09-29  77.61
## 4  2006-12-29  91.81
## 5  2007-03-30  97.10
## 6  2007-06-29 125.09
## 7  2007-09-28 154.50
## 8  2007-12-31 199.83
## 9  2008-03-31 194.93
## 10 2008-06-30 189.96
## # ... with 34 more rows
```
…
#### Example 2: Getting daily log returns 

The `quantmod::periodReturn()` function generates returns by periodicity. We have a few options here. Normally I go with a transform function, `tq_transform`, because the `periodReturn` function accepts different periodicity options, and anything other than daily will blow up a mutation. But, in our situation the period returns periodicity is the same as the stock prices periodicity (both daily), so we can use either. We want to use the adjusted closing prices column (adjusted for stock splits, which can make it appear that a stock is performing poorly if a split is included), so we set `x_fun = Ad`. We researched the `periodReturn` function, and we found that it accepts `type = "log"` and `period = "daily"`, which returns the daily log returns. 



```r
AAPL %>%
    tq_transform(x_fun = Ad, transform_fun = periodReturn, 
                 type = "log", period = "daily")
```

```
## # A tibble: 2,768 × 2
##          date daily.returns
##        <dttm>         <dbl>
## 1  2006-01-03   0.000000000
## 2  2006-01-04   0.002938752
## 3  2006-01-05  -0.007900889
## 4  2006-01-06   0.025485766
## 5  2006-01-09  -0.003281888
## 6  2006-01-10   0.061328315
## 7  2006-01-11   0.036906288
## 8  2006-01-12   0.004637594
## 9  2006-01-13   0.015305252
## 10 2006-01-17  -0.010334731
## # ... with 2,758 more rows
```

#### Example 3: Adding MACD and Bollinger Bands to a OHLC data set

In reviewing the available options in the `TTR` package, we see that `MACD` and `BBands` functions will get us where we need to be. In researching the documentation, the return is in the same periodicity as the input and the functions work with OHLC functions, so we can use `tq_mutate()`. MACD requires a price, so we select close using `Cl`, BBands requires high, low, and close, prices so we use `HLC`. We can chain the inputs together using the pipe (`%>%`) since mutate just adds columns. The result is a tibble containing the MACD and Bollinger Band results. 


```r
AAPL %>%
    tq_mutate(Cl, MACD) %>%
    tq_mutate(HLC, BBands)
```

```
## # A tibble: 2,768 × 13
##          date  open  high   low close    volume  adjusted  macd signal
##        <date> <dbl> <dbl> <dbl> <dbl>     <dbl>     <dbl> <dbl>  <dbl>
## 1  2006-01-03 72.38 74.75 72.25 74.75 201808600  9.726565    NA     NA
## 2  2006-01-04 75.13 75.98 74.50 74.97 154900900  9.755191    NA     NA
## 3  2006-01-05 74.83 74.90 73.75 74.38 112355600  9.678420    NA     NA
## 4  2006-01-06 75.25 76.70 74.55 76.30 176114400  9.928252    NA     NA
## 5  2006-01-09 76.73 77.20 75.74 76.05 168760200  9.895722    NA     NA
## 6  2006-01-10 76.25 81.89 75.83 80.86 569967300 10.521606    NA     NA
## 7  2006-01-11 83.84 84.80 82.59 83.90 373448600 10.917174    NA     NA
## 8  2006-01-12 84.97 86.40 83.62 84.29 320202400 10.967921    NA     NA
## 9  2006-01-13 84.99 86.01 84.60 85.59 194076400 11.137079    NA     NA
## 10 2006-01-17 85.70 86.38 83.87 84.71 208905900 11.022573    NA     NA
## # ... with 2,758 more rows, and 4 more variables: dn <dbl>, mavg <dbl>,
## #   up <dbl>, pctB <dbl>
```
Note that for the MACD, we could have used `tq_mutate_xy()`, setting `.x = close`. However, for the BBands, we are forced to use `tq_mutate()` because of the HLC input.

#### Example 4: Getting the Percentage Difference Between Open and Close from Zero to Five Periods 

We can't use the `OpCl` function for this task since it only returns the percentage difference for a period lag of zero. We keep digging and we find the base `Delt` function from quantmod. In researching the function, we see that `Delt` takes one or two inputs, `k` a series of lags, and the type of difference, either arithmetic or log. We will set `.x = open` and `.y = close` and `k = 0:5` to get zero through five periods. The default `type = "arithmetic"` is acceptable, so there is no need to specify. The result is the percentage difference between the open and close prices for periods zero to five.


```r
AAPL %>%
    tq_mutate_xy(.x = open, .y = close, mutate_fun = Delt, k = 0:5) %>%
    select(-c(high, low, volume, adjusted))
```

```
## # A tibble: 2,768 × 9
##          date  open close Delt.0.arithmetic Delt.1.arithmetic
##        <date> <dbl> <dbl>             <dbl>             <dbl>
## 1  2006-01-03 72.38 74.75      0.0327438653                NA
## 2  2006-01-04 75.13 74.97     -0.0021296021       0.035783351
## 3  2006-01-05 74.83 74.38     -0.0060135910      -0.009982657
## 4  2006-01-06 75.25 76.30      0.0139534485       0.019644528
## 5  2006-01-09 76.73 76.05     -0.0088622703       0.010631203
## 6  2006-01-10 76.25 80.86      0.0604590009       0.053825127
## 7  2006-01-11 83.84 83.90      0.0007155892       0.100327799
## 8  2006-01-12 84.97 84.29     -0.0080028479       0.005367330
## 9  2006-01-13 84.99 85.59      0.0070596538       0.007296705
## 10 2006-01-17 85.70 84.71     -0.0115518788      -0.003294505
## # ... with 2,758 more rows, and 4 more variables: Delt.2.arithmetic <dbl>,
## #   Delt.3.arithmetic <dbl>, Delt.4.arithmetic <dbl>,
## #   Delt.5.arithmetic <dbl>
```

For comparison we'll inspect the output from the `OpCl()` function using `tq_mutate()`. We send OHLC prices to the OpCl function. As expected the `OpCl..` column returned is the same as `Delt.0.arithmetic` from above.


```r
AAPL %>%
    tq_mutate(OHLC, OpCl) %>%
    select(-c(high, low, volume, adjusted))
```

```
## # A tibble: 2,768 × 4
##          date  open close        OpCl..
##        <date> <dbl> <dbl>         <dbl>
## 1  2006-01-03 72.38 74.75  0.0327438653
## 2  2006-01-04 75.13 74.97 -0.0021296021
## 3  2006-01-05 74.83 74.38 -0.0060135910
## 4  2006-01-06 75.25 76.30  0.0139534485
## 5  2006-01-09 76.73 76.05 -0.0088622703
## 6  2006-01-10 76.25 80.86  0.0604590009
## 7  2006-01-11 83.84 83.90  0.0007155892
## 8  2006-01-12 84.97 84.29 -0.0080028479
## 9  2006-01-13 84.99 85.59  0.0070596538
## 10 2006-01-17 85.70 84.71 -0.0115518788
## # ... with 2,758 more rows
```
…
