…
# --- Usage with tidyverse ---

# Go from daily to monthly periodicity,
# then calculate returns and growth of $1 USD
FANG %>%
    mutate(symbol = forcats::as_factor(symbol)) %>%
    group_by(symbol) %>%

    # Summarization - Collapse from daily to FIRST value by month
    summarise_by_time(
        .date_var  = date,
        .by        = "month",
        adjusted   = FIRST(adjusted)
    )
#> # A tibble: 192 × 3
#> # Groups:   symbol [4]
#>    symbol date       adjusted
#>    <fct>  <date>        <dbl>
#>  1 META   2013-01-01     28  
#>  2 META   2013-02-01     29.7
#>  3 META   2013-03-01     27.8
#>  4 META   2013-04-01     25.5
#>  5 META   2013-05-01     27.4
#>  6 META   2013-06-01     23.8
#>  7 META   2013-07-01     24.8
#>  8 META   2013-08-01     37.5
#>  9 META   2013-09-01     41.9
#> 10 META   2013-10-01     50.4
#> # ℹ 182 more rows
```
