…
goog_stock_prices  <- FANG %>%
    filter(symbol == "GOOG") %>%
        filter(
            date >= "2016-01-01",
            date <= "2016-12-31"
        )

# Example 1: Return logarithmic daily returns using periodReturn()
fb_stock_prices %>%
    tq_mutate(select = close, mutate_fun = periodReturn,
              period = "daily", type = "log")
#> # A tibble: 252 × 9
#>    symbol date        open  high   low close   volume adjusted daily.returns
#>    <chr>  <date>     <dbl> <dbl> <dbl> <dbl>    <dbl>    <dbl>         <dbl>
#>  1 META   2016-01-04 102.  102.   99.8 102.  37912400    102.        0      
#>  2 META   2016-01-05 103.  104.  102.  103.  23258200    103.        0.00498
#>  3 META   2016-01-06 101.  104.  101.  103.  25096200    103.        0.00233
#>  4 META   2016-01-07 100.  101.   97.3  97.9 45172900     97.9      -0.0503 
#>  5 META   2016-01-08  99.9 100.   97.0  97.3 35402300     97.3      -0.00604
#>  6 META   2016-01-11  97.9  98.6  95.4  97.5 29932400     97.5       0.00185
#>  7 META   2016-01-12  99   100.0  97.6  99.4 28395400     99.4       0.0189 
#>  8 META   2016-01-13 101.  101.   95.2  95.4 33410600     95.4      -0.0404 
#>  9 META   2016-01-14  95.8  98.9  92.4  98.4 48658600     98.4       0.0302 
#> 10 META   2016-01-15  94.0  96.4  93.5  95.0 45935600     95.0      -0.0352 
#> # ℹ 242 more rows

# Example 2: Use tq_mutate_xy to use functions with two columns required
fb_stock_prices %>%
    tq_mutate_xy(x = close, y = volume, mutate_fun = EVWMA,
                 col_rename = "EVWMA")
#> # A tibble: 252 × 9
#>    symbol date        open  high   low close   volume adjusted EVWMA
#>    <chr>  <date>     <dbl> <dbl> <dbl> <dbl>    <dbl>    <dbl> <dbl>
#>  1 META   2016-01-04 102.  102.   99.8 102.  37912400    102.   NA  
#>  2 META   2016-01-05 103.  104.  102.  103.  23258200    103.   NA  
#>  3 META   2016-01-06 101.  104.  101.  103.  25096200    103.   NA  
#>  4 META   2016-01-07 100.  101.   97.3  97.9 45172900     97.9  NA  
#>  5 META   2016-01-08  99.9 100.   97.0  97.3 35402300     97.3  NA  
#>  6 META   2016-01-11  97.9  98.6  95.4  97.5 29932400     97.5  NA  
#>  7 META   2016-01-12  99   100.0  97.6  99.4 28395400     99.4  NA  
#>  8 META   2016-01-13 101.  101.   95.2  95.4 33410600     95.4  NA  
#>  9 META   2016-01-14  95.8  98.9  92.4  98.4 48658600     98.4  NA  
#> 10 META   2016-01-15  94.0  96.4  93.5  95.0 45935600     95.0  95.0
#> # ℹ 242 more rows

# Example 3: Using tq_mutate to work with non-OHLC data
tq_get("DCOILWTICO", get = "economic.data") %>%
    tq_mutate(select = price, mutate_fun = lag.xts, k = 1, na.pad = TRUE)
#> # A tibble: 2,843 × 4
#>    symbol     date       price lag.xts
#>    <chr>      <date>     <dbl>   <dbl>
#>  1 DCOILWTICO 2015-01-01  NA      NA  
#>  2 DCOILWTICO 2015-01-02  52.7    NA  
#>  3 DCOILWTICO 2015-01-05  50.0    52.7
#>  4 DCOILWTICO 2015-01-06  48.0    50.0
#>  5 DCOILWTICO 2015-01-07  48.7    48.0
#>  6 DCOILWTICO 2015-01-08  48.8    48.7
#>  7 DCOILWTICO 2015-01-09  48.4    48.8
#>  8 DCOILWTICO 2015-01-12  46.1    48.4
#>  9 DCOILWTICO 2015-01-13  45.9    46.1
#> 10 DCOILWTICO 2015-01-14  48.5    45.9
#> # ℹ 2,833 more rows
…
# Example 5: Non-standard evaluation:
# Programming with tq_mutate_() and tq_mutate_xy_()
col_name <- "adjusted"
mutate <- c("MACD", "SMA")
tq_mutate_xy_(fb_stock_prices, x = col_name, mutate_fun = mutate[[1]])
#> # A tibble: 252 × 10
#>    symbol date        open  high   low close   volume adjusted  macd signal
#>    <chr>  <date>     <dbl> <dbl> <dbl> <dbl>    <dbl>    <dbl> <dbl>  <dbl>
#>  1 META   2016-01-04 102.  102.   99.8 102.  37912400    102.     NA     NA
#>  2 META   2016-01-05 103.  104.  102.  103.  23258200    103.     NA     NA
#>  3 META   2016-01-06 101.  104.  101.  103.  25096200    103.     NA     NA
#>  4 META   2016-01-07 100.  101.   97.3  97.9 45172900     97.9    NA     NA
#>  5 META   2016-01-08  99.9 100.   97.0  97.3 35402300     97.3    NA     NA
#>  6 META   2016-01-11  97.9  98.6  95.4  97.5 29932400     97.5    NA     NA
#>  7 META   2016-01-12  99   100.0  97.6  99.4 28395400     99.4    NA     NA
#>  8 META   2016-01-13 101.  101.   95.2  95.4 33410600     95.4    NA     NA
#>  9 META   2016-01-14  95.8  98.9  92.4  98.4 48658600     98.4    NA     NA
#> 10 META   2016-01-15  94.0  96.4  93.5  95.0 45935600     95.0    NA     NA
#> # ℹ 242 more rows
```
