Aggregates a group of returns by asset into portfolio returns — tq_portfolio • tidyquant
…
##### Portfolio Aggregation Methods #####

# Method 1: Use tq_portfolio with numeric vector of weights

weights <- c(0.50, 0.25, 0.25, 0)
tq_portfolio(data = monthly_returns_stocks,
             assets_col = symbol,
             returns_col = monthly.returns,
             weights = weights,
             col_rename = NULL,
             wealth.index = FALSE)
#> # A tibble: 48 × 2
#>    date       portfolio.returns
#>    <date>                 <dbl>
#>  1 2013-01-31           0.260  
#>  2 2013-02-28          -0.00456
#>  3 2013-03-28          -0.0195 
#>  4 2013-04-30           0.0810 
#>  5 2013-05-31          -0.0139 
#>  6 2013-06-28          -0.0179 
#>  7 2013-07-31           0.254  
#>  8 2013-08-30           0.104  
#>  9 2013-09-30           0.145  
#> 10 2013-10-31           0.0420 
#> # ℹ 38 more rows

# Method 2: Use tq_portfolio with two column tibble and map weights

# Note that GOOG's weighting is zero in Method 1. In Method 2,
# GOOG is not added and same result is achieved.
weights_df <- tibble(symbol = c("META", "AMZN", "NFLX"),
                     weights = c(0.50, 0.25, 0.25))
tq_portfolio(data = monthly_returns_stocks,
             assets_col = symbol,
             returns_col = monthly.returns,
             weights = weights_df,
             col_rename = NULL,
             wealth.index = FALSE)
#> # A tibble: 48 × 2
#>    date       portfolio.returns
#>    <date>                 <dbl>
#>  1 2013-01-31           0.260  
#>  2 2013-02-28          -0.00456
#>  3 2013-03-28          -0.0195 
#>  4 2013-04-30           0.0810 
#>  5 2013-05-31          -0.0139 
#>  6 2013-06-28          -0.0179 
#>  7 2013-07-31           0.254  
#>  8 2013-08-30           0.104  
#>  9 2013-09-30           0.145  
#> 10 2013-10-31           0.0420 
#> # ℹ 38 more rows
…
# 3C: Scale to multiple portfolios
tq_portfolio(data = mult_monthly_returns_stocks,
             assets_col = symbol,
             returns_col = monthly.returns,
             weights = weights_table,
             col_rename = NULL,
             wealth.index = FALSE)
#> # A tibble: 192 × 3
#> # Groups:   portfolio [4]
#>    portfolio date       portfolio.returns
#>        <int> <date>                 <dbl>
#>  1         1 2013-01-31           0.260  
#>  2         1 2013-02-28          -0.00456
#>  3         1 2013-03-28          -0.0195 
#>  4         1 2013-04-30           0.0810 
#>  5         1 2013-05-31          -0.0139 
#>  6         1 2013-06-28          -0.0179 
#>  7         1 2013-07-31           0.254  
#>  8         1 2013-08-30           0.104  
#>  9         1 2013-09-30           0.145  
#> 10         1 2013-10-31           0.0420 
#> # ℹ 182 more rows
…
