R Quantitative Analysis Package Integrations in tidyquant • tidyquant
…
Return.clean: Removes outliers from returns

Return.excess: Removes the risk-free rate from the returns to yield returns in excess of the risk-free rate

zerofill: Used to replace NA values with zeros.

2.0 Quantitative Power In Action

We’ll go through some examples, but first let’s get some data. The FANG data set will be used which consists of stock prices for FB, AMZN, NFLX, and GOOG from the beginning of 2013 to the end of 2016.

data("FANG")

FANG

## # A tibble: 4,032 x 8
##    symbol date        open  high   low close    volume adjusted
##    <chr>  <date>     <dbl> <dbl> <dbl> <dbl>     <dbl>    <dbl>
##  1 FB     2013-01-02  27.4  28.2  27.4  28    69846400     28  
##  2 FB     2013-01-03  27.9  28.5  27.6  27.8  63140600     27.8
##  3 FB     2013-01-04  28.0  28.9  27.8  28.8  72715400     28.8
##  4 FB     2013-01-07  28.7  29.8  28.6  29.4  83781800     29.4
##  5 FB     2013-01-08  29.5  29.6  28.9  29.1  45871300     29.1
##  6 FB     2013-01-09  29.7  30.6  29.5  30.6 104787700     30.6
##  7 FB     2013-01-10  30.6  31.5  30.3  31.3  95316400     31.3
##  8 FB     2013-01-11  31.3  32.0  31.1  31.7  89598000     31.7
##  9 FB     2013-01-14  32.1  32.2  30.6  31.0  98892800     31.0
## 10 FB     2013-01-15  30.6  31.7  29.9  30.1 173242600     30.1
## # ... with 4,022 more rows
…
Example 2: Use xts to.period to Change the Periodicity from Daily to Monthly

The xts::to.period function is used for periodicity aggregation (converting from a lower level periodicity to a higher level such as minutes to hours or months to years). Because we are seeking a return structure that is on a different time scale than the input (daily versus weekly), we need to use a transmute function. We select tq_transmute() and pass the open, high, low, close and volume columns via select = open:volume. Looking at the documentation for to.period, we see that it accepts a period argument that we can set to "weeks". The result is the OHLCV data returned with the dates changed to one day per week.

FANG %>%
    group_by(symbol) %>%
    tq_transmute(select     = open:volume,
                 mutate_fun = to.period,
                 period     = "months")

## # A tibble: 192 x 7
## # Groups:   symbol [4]
##    symbol date        open  high   low close    volume
##    <chr>  <date>     <dbl> <dbl> <dbl> <dbl>     <dbl>
##  1 FB     2013-01-31  29.2  31.5  28.7  31.0 190744900
##  2 FB     2013-02-28  26.8  27.3  26.3  27.2  83027800
##  3 FB     2013-03-28  26.1  26.2  25.5  25.6  28585700
##  4 FB     2013-04-30  27.1  27.8  27.0  27.8  36245700
##  5 FB     2013-05-31  24.6  25.0  24.3  24.4  35925000
##  6 FB     2013-06-28  24.7  25.0  24.4  24.9  96778900
##  7 FB     2013-07-31  38.0  38.3  36.3  36.8 154828700
##  8 FB     2013-08-30  42.0  42.3  41.1  41.3  67735100
##  9 FB     2013-09-30  50.1  51.6  49.8  50.2 100095000
## 10 FB     2013-10-31  47.2  52    46.5  50.2 248809000
## # ... with 182 more rows
…
Next, join the asset returns with the baseline returns by date.

returns_joined <- left_join(FANG_returns_monthly,
                            baseline_returns_monthly,
                            by = "date")
returns_joined

## # A tibble: 192 x 4
## # Groups:   symbol [4]
##    symbol date       monthly.returns.x monthly.returns.y
##    <chr>  <date>                 <dbl>             <dbl>
##  1 FB     2013-01-31          0.106             -0.0138 
##  2 FB     2013-02-28         -0.120              0.00782
##  3 FB     2013-03-28         -0.0613             0.0258 
##  4 FB     2013-04-30          0.0856             0.0175 
##  5 FB     2013-05-31         -0.123              0.0279 
##  6 FB     2013-06-28          0.0218            -0.0289 
##  7 FB     2013-07-31          0.479              0.0373 
##  8 FB     2013-08-30          0.122             -0.0104 
##  9 FB     2013-09-30          0.217              0.0253 
## 10 FB     2013-10-31         -0.000398           0.0502 
## # ... with 182 more rows
…
In reviewing the available options in the TTR package, we see that MACD will get us the Moving Average Convergence Divergence (MACD). In researching the documentation, the return is in the same periodicity as the input and the functions work with OHLC functions, so we can use tq_mutate(). MACD requires a price, so we select close.

FANG_macd <- FANG %>%
    group_by(symbol) %>%
    tq_mutate(select     = close,
              mutate_fun = MACD,
              nFast      = 12,
              nSlow      = 26,
              nSig       = 9,
              maType     = SMA) %>%
    mutate(diff = macd - signal) %>%
    select(-(open:volume))
FANG_macd

## # A tibble: 4,032 x 6
## # Groups:   symbol [4]
##    symbol date       adjusted  macd signal  diff
##    <chr>  <date>        <dbl> <dbl>  <dbl> <dbl>
##  1 FB     2013-01-02     28      NA     NA    NA
##  2 FB     2013-01-03     27.8    NA     NA    NA
##  3 FB     2013-01-04     28.8    NA     NA    NA
##  4 FB     2013-01-07     29.4    NA     NA    NA
##  5 FB     2013-01-08     29.1    NA     NA    NA
##  6 FB     2013-01-09     30.6    NA     NA    NA
##  7 FB     2013-01-10     31.3    NA     NA    NA
##  8 FB     2013-01-11     31.7    NA     NA    NA
##  9 FB     2013-01-14     31.0    NA     NA    NA
## 10 FB     2013-01-15     30.1    NA     NA    NA
## # ... with 4,022 more rows
…
Example 5: Use xts apply.quarterly to Get the Max and Min Price for Each Quarter

The xts::apply.quarterly() function that is part of the period apply group can be used to apply functions by quarterly time segments. Because we are seeking a return structure that is on a different time scale than the input (quarterly versus daily), we need to use a transmute function. We select tq_transmute and pass the close price using select, and we send this subset of the data to the apply.quarterly function via the mutate_fun argument. Looking at the documentation for apply.quarterly, we see that we can pass a function to the argument, FUN. We want the maximum values, so we set FUN = max. The result is the quarters returned as a date and the maximum closing price during the quarter returned as a double.

FANG_max_by_qtr <- FANG %>%
    group_by(symbol) %>%
    tq_transmute(select     = adjusted,
                 mutate_fun = apply.quarterly,
                 FUN        = max,
                 col_rename = "max.close") %>%
    mutate(year.qtr = paste0(year(date), "-Q", quarter(date))) %>%
    select(-date)
FANG_max_by_qtr

## # A tibble: 64 x 3
## # Groups:   symbol [4]
##    symbol max.close year.qtr
##    <chr>      <dbl> <chr>   
##  1 FB          32.5 2013-Q1 
##  2 FB          29.0 2013-Q2 
##  3 FB          51.2 2013-Q3 
##  4 FB          58.0 2013-Q4 
##  5 FB          72.0 2014-Q1 
##  6 FB          67.6 2014-Q2 
##  7 FB          79.0 2014-Q3 
##  8 FB          81.4 2014-Q4 
##  9 FB          85.3 2015-Q1 
## 10 FB          88.9 2015-Q2 
## # ... with 54 more rows
…
FANG_min_by_qtr <- FANG %>%
    group_by(symbol) %>%
    tq_transmute(select     = adjusted,
                 mutate_fun = apply.quarterly,
                 FUN        = min,
                 col_rename = "min.close") %>%
    mutate(year.qtr = paste0(year(date), "-Q", quarter(date))) %>%
    select(-date)

FANG_by_qtr <- left_join(FANG_max_by_qtr, FANG_min_by_qtr,
                         by = c("symbol"   = "symbol",
                                "year.qtr" = "year.qtr"))
FANG_by_qtr

## # A tibble: 64 x 4
## # Groups:   symbol [4]
##    symbol max.close year.qtr min.close
##    <chr>      <dbl> <chr>        <dbl>
##  1 FB          32.5 2013-Q1       25.1
##  2 FB          29.0 2013-Q2       22.9
##  3 FB          51.2 2013-Q3       24.4
##  4 FB          58.0 2013-Q4       44.8
##  5 FB          72.0 2014-Q1       53.5
##  6 FB          67.6 2014-Q2       56.1
##  7 FB          79.0 2014-Q3       62.8
##  8 FB          81.4 2014-Q4       72.6
##  9 FB          85.3 2015-Q1       74.1
## 10 FB          88.9 2015-Q2       77.5
## # ... with 54 more rows
…
regr_fun <- function(data) {
    coef(lm(MA ~ V, data = timetk::tk_tbl(data, silent = TRUE)))
}

Now we can use tq_mutate() to apply the custom regression function over a rolling window using rollapply from the zoo package. Internally, the returns_combined data frame is being passed automatically to the data argument of the rollapply function. All you need to specify is the mutate_fun = rollapply and any additional arguments necessary to apply the rollapply function. We’ll specify a 90 day window via width = 90. The FUN argument is our custom regression function, regr_fun. It’s extremely important to specify by.column = FALSE, which tells rollapply to perform the computation using the data as a whole rather than apply the function to each column independently. The col_rename argument is used to rename the added columns.

stock_pairs <- stock_pairs %>%
         tq_mutate(mutate_fun = rollapply,
                   width      = 90,
                   FUN        = regr_fun,
                   by.column  = FALSE,
                   col_rename = c("coef.0", "coef.1"))
stock_pairs

## # A tibble: 504 x 5
##    date             MA        V coef.0 coef.1
##    <date>        <dbl>    <dbl>  <dbl>  <dbl>
##  1 2015-01-02  0        0           NA     NA
##  2 2015-01-05 -0.0285  -0.0223      NA     NA
##  3 2015-01-06 -0.00216 -0.00646     NA     NA
##  4 2015-01-07  0.0154   0.0133      NA     NA
##  5 2015-01-08  0.0154   0.0133      NA     NA
##  6 2015-01-09 -0.0128  -0.0149      NA     NA
##  7 2015-01-12 -0.0129  -0.00196     NA     NA
##  8 2015-01-13  0.00228  0.00292     NA     NA
##  9 2015-01-14 -0.00108 -0.0202      NA     NA
## 10 2015-01-15 -0.0146  -0.00955     NA     NA
## # ... with 494 more rows
…
Example 7: Use Return.clean and Return.excess to clean and calculate excess returns

In this example we use several of the PerformanceAnalytics functions to clean and format returns. The example uses three progressive applications of tq_transmute to apply various quant functions to the grouped stock prices from the FANG data set. First, we calculate daily returns using quantmod::periodReturn. Next, we use Return.clean to clean outliers from the return data. The alpha parameter is the percentage of oultiers to be cleaned. Finally, the excess returns are calculated using a risk-free rate of 3% (divided by 252 for 252 trade days in one year).

FANG %>%
    group_by(symbol) %>%
    tq_transmute(adjusted, periodReturn, period = "daily") %>%
    tq_transmute(daily.returns, Return.clean, alpha = 0.05) %>%
    tq_transmute(daily.returns, Return.excess, Rf = 0.03 / 252)

## # A tibble: 4,032 x 3
## # Groups:   symbol [4]
##    symbol date       `daily.returns > Rf`
##    <chr>  <date>                    <dbl>
##  1 FB     2013-01-02            -0.000119
##  2 FB     2013-01-03            -0.00833 
##  3 FB     2013-01-04             0.0355  
##  4 FB     2013-01-07             0.0228  
##  5 FB     2013-01-08            -0.0124  
##  6 FB     2013-01-09             0.0525  
##  7 FB     2013-01-10             0.0231  
##  8 FB     2013-01-11             0.0133  
##  9 FB     2013-01-14            -0.0244  
## 10 FB     2013-01-15            -0.0276  
## # ... with 4,022 more rows
…
