Scaling and Modeling with tidyquant • tidyquant
…
Load the tidyquant package to get started.

# Loads tidyquant, tidyverse, lubridate, xts, quantmod, TTR 
library(tidyquant)  

Scaling the Getting of Financial Data

A very basic example is retrieving the stock prices for multiple stocks. There are three primary ways to do this:

Method 1: Map a character vector with multiple stock symbols

c("AAPL", "GOOG", "FB") %>%
    tq_get(get = "stock.prices", from = "2016-01-01", to = "2017-01-01")

## # A tibble: 756 x 8
##    symbol       date    open    high     low  close   volume  adjusted
##     <chr>     <date>   <dbl>   <dbl>   <dbl>  <dbl>    <dbl>     <dbl>
##  1   AAPL 2016-01-04 106.198 109.055 105.567 105.35 67649400 101.79065
##  2   AAPL 2016-01-05 109.448 109.551 105.991 102.71 55791000  99.23985
##  3   AAPL 2016-01-06 104.076 105.950 103.362 100.70 68457400  97.29776
##  4   AAPL 2016-01-07 102.131 103.631  99.802  96.45 81094400  93.19134
##  5   AAPL 2016-01-08 101.996 102.576 100.143  96.96 70798000  93.68412
##  6   AAPL 2016-01-11 102.431 102.524 100.744  98.53 49739400  95.20107
##  7   AAPL 2016-01-12 104.066 104.211 102.296  99.96 49154200  96.58276
##  8   AAPL 2016-01-13 103.828 104.728 100.702  97.39 62439600  94.09959
##  9   AAPL 2016-01-14 101.385 103.994  99.088  99.52 63170100  96.15761
## 10   AAPL 2016-01-15  99.564 101.127  98.694  97.13 79010000  93.84837
## # ... with 746 more rows
…
## # A tibble: 3 x 2
##   stocks   industry
##    <chr>      <chr>
## 1   AAPL Technology
## 2    JPM  Financial
## 3    CVX     Energy

Second, send the stock list to tq_get. Notice how the symbol and industry columns are automatically expanded the length of the stock prices.

stock_list %>%
    tq_get(get = "stock.prices", from = "2016-01-01", to = "2017-01-01")

## # A tibble: 756 x 9
##    stocks   industry       date    open    high     low  close   volume
##     <chr>      <chr>     <date>   <dbl>   <dbl>   <dbl>  <dbl>    <dbl>
##  1   AAPL Technology 2016-01-04 106.198 109.055 105.567 105.35 67649400
##  2   AAPL Technology 2016-01-05 109.448 109.551 105.991 102.71 55791000
##  3   AAPL Technology 2016-01-06 104.076 105.950 103.362 100.70 68457400
##  4   AAPL Technology 2016-01-07 102.131 103.631  99.802  96.45 81094400
##  5   AAPL Technology 2016-01-08 101.996 102.576 100.143  96.96 70798000
##  6   AAPL Technology 2016-01-11 102.431 102.524 100.744  98.53 49739400
##  7   AAPL Technology 2016-01-12 104.066 104.211 102.296  99.96 49154200
##  8   AAPL Technology 2016-01-13 103.828 104.728 100.702  97.39 62439600
##  9   AAPL Technology 2016-01-14 101.385 103.994  99.088  99.52 63170100
## 10   AAPL Technology 2016-01-15  99.564 101.127  98.694  97.13 79010000
## # ... with 746 more rows, and 1 more variables: adjusted <dbl>

Method 2B: Use index or exchange

Get an index…

tq_index("DOW")

## # A tibble: 30 x 5
##    symbol                                     company     weight
##     <chr>                                       <chr>      <dbl>
##  1     BA                              Boeing Company 0.07387518
##  2     GS                    Goldman Sachs Group Inc. 0.07015017
##  3    MMM                                  3M Company 0.06464975
##  4    UNH             UnitedHealth Group Incorporated 0.06025000
##  5   AAPL                                  Apple Inc. 0.05004508
##  6    MCD                      McDonald's Corporation 0.04940767
##  7     HD                             Home Depot Inc. 0.04733996
##  8    IBM International Business Machines Corporation 0.04430832
##  9    JNJ                           Johnson & Johnson 0.04171822
## 10    TRV                    Travelers Companies Inc. 0.04025683
## # ... with 20 more rows, and 2 more variables: sector <chr>,
## #   shares_held <dbl>

…or, get an exchange.

tq_exchange("NYSE")

## # A tibble: 3,142 x 7
##    symbol                company last.sale.price market.cap ipo.year
##     <chr>                  <chr>           <dbl>      <chr>    <dbl>
##  1    DDD 3D Systems Corporation           12.55     $1.43B       NA
##  2    MMM             3M Company          207.92   $124.08B       NA
##  3   WBAI        500.com Limited           10.01   $408.08M     2013
##  4   WUBA            58.com Inc.           55.13     $8.01B     2013
##  5    AHC  A.H. Belo Corporation            4.80   $104.42M       NA
##  6   ATEN     A10 Networks, Inc.            6.28   $444.41M     2014
##  7    AAC     AAC Holdings, Inc.            8.69   $209.09M     2014
##  8    AIR              AAR Corp.           35.91     $1.24B       NA
##  9    AAN     Aaron&#39;s,  Inc.           45.00     $3.27B       NA
## 10    ABB                ABB Ltd           23.21    $49.53B       NA
## # ... with 3,132 more rows, and 2 more variables: sector <chr>,
## #   industry <chr>

Send the index or exchange to tq_get. Important Note: This can take several minutes depending on the size of the index or exchange, which is why only the first three stocks are evaluated in the vignette.

tq_index("DOW") %>%
    slice(1:3) %>%
    tq_get(get = "stock.prices")

## # A tibble: 8,025 x 12
##    symbol        company     weight      sector shares_held       date
##     <chr>          <chr>      <dbl>       <chr>       <dbl>     <date>
##  1     BA Boeing Company 0.07387518 Industrials     5647599 2007-01-03
##  2     BA Boeing Company 0.07387518 Industrials     5647599 2007-01-04
##  3     BA Boeing Company 0.07387518 Industrials     5647599 2007-01-05
##  4     BA Boeing Company 0.07387518 Industrials     5647599 2007-01-08
##  5     BA Boeing Company 0.07387518 Industrials     5647599 2007-01-09
##  6     BA Boeing Company 0.07387518 Industrials     5647599 2007-01-10
##  7     BA Boeing Company 0.07387518 Industrials     5647599 2007-01-11
##  8     BA Boeing Company 0.07387518 Industrials     5647599 2007-01-12
##  9     BA Boeing Company 0.07387518 Industrials     5647599 2007-01-16
## 10     BA Boeing Company 0.07387518 Industrials     5647599 2007-01-17
## # ... with 8,015 more rows, and 6 more variables: open <dbl>, high <dbl>,
## #   low <dbl>, close <dbl>, volume <dbl>, adjusted <dbl>
…
This returns the stock prices and financials for each stock as one nested data frame! Any of the get options that accept stock symbols can be used in this manner: "stock.prices", "financials", "key.ratios", "key.stats", "dividends", and "splits".

Scaling the Mutation of Financial Data

Once you get the data, you typically want to do something with it. You can easily do this at scale. Let’s get the yearly returns for multiple stocks using tq_transmute. First, get the prices. We’ll use the FANG data set, but you typically will use tq_get to retrieve data in “tibble” format.

data("FANG")
FANG

## # A tibble: 4,032 x 8
##    symbol       date  open  high   low close    volume adjusted
##     <chr>     <date> <dbl> <dbl> <dbl> <dbl>     <dbl>    <dbl>
##  1     FB 2013-01-02 27.44 28.18 27.42 28.00  69846400    28.00
##  2     FB 2013-01-03 27.88 28.47 27.59 27.77  63140600    27.77
##  3     FB 2013-01-04 28.01 28.93 27.83 28.76  72715400    28.76
##  4     FB 2013-01-07 28.69 29.79 28.65 29.42  83781800    29.42
##  5     FB 2013-01-08 29.51 29.60 28.86 29.06  45871300    29.06
##  6     FB 2013-01-09 29.67 30.60 29.49 30.59 104787700    30.59
##  7     FB 2013-01-10 30.60 31.45 30.28 31.30  95316400    31.30
##  8     FB 2013-01-11 31.28 31.96 31.10 31.72  89598000    31.72
##  9     FB 2013-01-14 32.08 32.21 30.62 30.95  98892800    30.95
## 10     FB 2013-01-15 30.64 31.71 29.88 30.10 173242600    30.10
## # ... with 4,022 more rows
…
Cons: Errors can be inadvertently handled or flow downstream if the users does not read the warnings

Bad Apples Fail Gracefully, tq_get

Let’s see an example when using tq_get() to get the stock prices for a long list of stocks with one BAD APPLE. The argument complete_cases comes in handy. The default is TRUE, which removes “bad apples” so future analysis have complete cases to compute on. Note that a gentle warning stating that an error occurred and was dealt with by removing the rows from the results.

c("AAPL", "GOOG", "BAD APPLE") %>%
    tq_get(get = "stock.prices", complete_cases = TRUE)

## Warning: x = 'BAD APPLE', get = 'stock.prices': Error: BAD APPLE download failed after two attempts. Error message:
## HTTP error 400.
##  Removing BAD APPLE.

## # A tibble: 5,350 x 8
##    symbol       date   open   high    low    close    volume adjusted
##     <chr>     <date>  <dbl>  <dbl>  <dbl>    <dbl>     <dbl>    <dbl>
##  1   AAPL 2007-01-03 13.702 13.748 13.005 11.97143 309579900 10.77017
##  2   AAPL 2007-01-04 13.346 13.648 13.310 12.23714 211815100 11.00922
##  3   AAPL 2007-01-05 13.619 13.688 13.402 12.15000 208685400 10.93082
##  4   AAPL 2007-01-08 13.650 13.740 13.542 12.21000 199276700 10.98480
##  5   AAPL 2007-01-09 13.727 14.764 13.521 13.22429 837324600 11.89731
##  6   AAPL 2007-01-10 15.045 15.530 14.839 13.85714 738220000 12.46666
##  7   AAPL 2007-01-11 15.234 15.368 15.101 13.68572 360063200 12.31244
##  8   AAPL 2007-01-12 15.020 15.095 14.804 13.51714 328172600 12.16078
##  9   AAPL 2007-01-16 15.193 15.442 15.157 13.87143 311019100 12.47951
## 10   AAPL 2007-01-17 15.492 15.498 15.057 13.56428 411565000 12.20319
## # ... with 5,340 more rows
…
