Excel Statistical Mutation Functions — excel_stat_mutation_functions • tidyquant
…
    # Summarization - Collapse from daily to FIRST value by month
    summarise_by_time(
        .date_var  = date,
        .by        = "month",
        adjusted   = FIRST(adjusted)
    ) %>%

    # Mutation - Calculate monthly returns and cumulative growth of $1 USD
    group_by(symbol) %>%
    mutate(
        returns = PCT_CHANGE(adjusted, fill_na = 0),
        growth  = CUMULATIVE_SUM(returns) + 1
    )
#> # A tibble: 192 × 5
#> # Groups:   symbol [4]
#>    symbol date       adjusted returns growth
#>    <fct>  <date>        <dbl>   <dbl>  <dbl>
#>  1 FB     2013-01-01     28    0       1    
#>  2 FB     2013-02-01     29.7  0.0618  1.06 
#>  3 FB     2013-03-01     27.8 -0.0656  0.996
#>  4 FB     2013-04-01     25.5 -0.0810  0.915
#>  5 FB     2013-05-01     27.4  0.0744  0.990
#>  6 FB     2013-06-01     23.8 -0.131   0.859
#>  7 FB     2013-07-01     24.8  0.0403  0.899
#>  8 FB     2013-08-01     37.5  0.511   1.41 
#>  9 FB     2013-09-01     41.9  0.117   1.53 
#> 10 FB     2013-10-01     50.4  0.204   1.73 
#> # … with 182 more rows
…
