Excel Statistical Summary Functions — excel_stat_summary_functions • tidyquant
…
# --- Usage with tidyverse ---

# Go from daily to monthly periodicity,
# then calculate returns and growth of $1 USD
FANG %>%
    mutate(symbol = as_factor(symbol)) %>%
    group_by(symbol) %>%

    # Summarization - Collapse from daily to FIRST value by month
    summarise_by_time(
        .date_var  = date,
        .time_unit = "month",
        adjusted   = FIRST(adjusted)
    )
#> # A tibble: 836 x 4
#> # Groups:   symbol [4]
#>    symbol date       .time_unit adjusted
#>    <fct>  <date>     <chr>         <dbl>
#>  1 FB     2012-12-30 month          28  
#>  2 FB     2013-01-06 month          29.4
#>  3 FB     2013-01-13 month          31.0
#>  4 FB     2013-01-20 month          30.7
#>  5 FB     2013-01-27 month          32.5
#>  6 FB     2013-02-03 month          28.1
#>  7 FB     2013-02-10 month          28.3
#>  8 FB     2013-02-17 month          28.9
#>  9 FB     2013-02-24 month          27.3
#> 10 FB     2013-03-03 month          27.7
#> # … with 826 more rows
…
