Summarise each group by time — summarise_by_time • tidyquant
…
    Examples

# Libraries
library(tidyquant)
library(dplyr)

# First adjusted price in each month
FANG %>%
    group_by(symbol) %>%
    summarise_by_time(
        .date_var  = date,
        .by         = "month",
        adjusted   = FIRST(adjusted)
    )
#> # A tibble: 192 x 3
#> # Groups:   symbol [4]
#>    symbol date       adjusted
#>    <chr>  <date>        <dbl>
#>  1 AMZN   2013-01-01     257.
#>  2 AMZN   2013-02-01     265 
#>  3 AMZN   2013-03-01     266.
#>  4 AMZN   2013-04-01     262.
#>  5 AMZN   2013-05-01     248.
#>  6 AMZN   2013-06-01     267.
#>  7 AMZN   2013-07-01     282.
#>  8 AMZN   2013-08-01     306.
#>  9 AMZN   2013-09-01     289.
#> 10 AMZN   2013-10-01     321.
#> # … with 182 more rows

# Last adjused price in each month (day is last day of month with ceiling option)
FANG %>%
    group_by(symbol) %>%
    summarise_by_time(
        .date_var  = date,
        .by        = "month",
        adjusted   = LAST(adjusted),
        .type      = "ceiling")
#> # A tibble: 192 x 3
#> # Groups:   symbol [4]
#>    symbol date       adjusted
#>    <chr>  <date>        <dbl>
#>  1 AMZN   2013-02-01     266.
#>  2 AMZN   2013-03-01     264.
#>  3 AMZN   2013-04-01     266.
#>  4 AMZN   2013-05-01     254.
#>  5 AMZN   2013-06-01     269.
#>  6 AMZN   2013-07-01     278.
#>  7 AMZN   2013-08-01     301.
#>  8 AMZN   2013-09-01     281.
#>  9 AMZN   2013-10-01     313.
#> 10 AMZN   2013-11-01     364.
#> # … with 182 more rows
…
