Mutates quantitative data — tq_mutate • tidyquant
…
# Load libraries
library(tidyquant)

##### Basic Functionality

fb_stock_prices  <- tq_get("FB",
                           get  = "stock.prices",
                           from = "2016-01-01",
                           to   = "2016-12-31")

# Example 1: Return logarithmic daily returns using periodReturn()
fb_stock_prices %>%
    tq_mutate(select = close, mutate_fun = periodReturn,
              period = "daily", type = "log")
#> # A tibble: 252 x 8
#>    date        open  high   low close    volume adjusted daily.returns
#>    <date>     <dbl> <dbl> <dbl> <dbl>     <dbl>    <dbl>         <dbl>
#>  1 2016-01-04 102.  102.   99.8 102.  37912400.    102.        0.     
#>  2 2016-01-05 103.  104.  102.  103.  23258200.    103.        0.00498
#>  3 2016-01-06 101.  104.  101.  103.  25096200.    103.        0.00233
#>  4 2016-01-07 100.  101.   97.3  97.9 45172900.     97.9      -0.0503 
#>  5 2016-01-08  99.9 100.   97.0  97.3 35402300.     97.3      -0.00604
#>  6 2016-01-11  97.9  98.6  95.4  97.5 29873100.     97.5       0.00185
#>  7 2016-01-12  99.0 100.0  97.6  99.4 28395400.     99.4       0.0189 
#>  8 2016-01-13 101.  101.   95.2  95.4 33410600.     95.4      -0.0404 
#>  9 2016-01-14  95.8  98.9  92.4  98.4 48658600.     98.4       0.0302 
#> 10 2016-01-15  94.0  96.4  93.5  95.0 46132800.     95.0      -0.0352 
#> # ... with 242 more rows

# Example 2: Use tq_mutate_xy to use functions with two columns required
fb_stock_prices %>%
    tq_mutate_xy(x = close, y = volume, mutate_fun = EVWMA,
                 col_rename = "EVWMA")
#> # A tibble: 252 x 8
#>    date        open  high   low close    volume adjusted EVWMA
#>    <date>     <dbl> <dbl> <dbl> <dbl>     <dbl>    <dbl> <dbl>
#>  1 2016-01-04 102.  102.   99.8 102.  37912400.    102.   NA  
#>  2 2016-01-05 103.  104.  102.  103.  23258200.    103.   NA  
#>  3 2016-01-06 101.  104.  101.  103.  25096200.    103.   NA  
#>  4 2016-01-07 100.  101.   97.3  97.9 45172900.     97.9  NA  
#>  5 2016-01-08  99.9 100.   97.0  97.3 35402300.     97.3  NA  
#>  6 2016-01-11  97.9  98.6  95.4  97.5 29873100.     97.5  NA  
#>  7 2016-01-12  99.0 100.0  97.6  99.4 28395400.     99.4  NA  
#>  8 2016-01-13 101.  101.   95.2  95.4 33410600.     95.4  NA  
#>  9 2016-01-14  95.8  98.9  92.4  98.4 48658600.     98.4  NA  
#> 10 2016-01-15  94.0  96.4  93.5  95.0 46132800.     95.0  95.0
#> # ... with 242 more rows

# Example 3: Using tq_mutate to work with non-OHLC data
tq_get("DCOILWTICO", get = "economic.data") %>%
    tq_mutate(select = price, mutate_fun = lag.xts, k = 1, na.pad = TRUE)
#> # A tibble: 2,680 x 3
#>    date       price lag.xts
#>    <date>     <dbl>   <dbl>
#>  1 2008-01-01  NA      NA  
#>  2 2008-01-02  99.6    NA  
#>  3 2008-01-03  99.2    99.6
#>  4 2008-01-04  97.9    99.2
#>  5 2008-01-07  95.1    97.9
#>  6 2008-01-08  96.4    95.1
#>  7 2008-01-09  95.6    96.4
#>  8 2008-01-10  93.9    95.6
#>  9 2008-01-11  92.7    93.9
#> 10 2008-01-14  94.2    92.7
#> # ... with 2,670 more rows
…
# Example 5: Non-standard evaluation:
# Programming with tq_mutate_() and tq_mutate_xy_()
col_name <- "adjusted"
mutate <- c("MACD", "SMA")
tq_mutate_xy_(fb_stock_prices, x = col_name, mutate_fun = mutate[[1]])
#> # A tibble: 252 x 9
#>    date        open  high   low close    volume adjusted  macd signal
#>    <date>     <dbl> <dbl> <dbl> <dbl>     <dbl>    <dbl> <dbl>  <dbl>
#>  1 2016-01-04 102.  102.   99.8 102.  37912400.    102.     NA     NA
#>  2 2016-01-05 103.  104.  102.  103.  23258200.    103.     NA     NA
#>  3 2016-01-06 101.  104.  101.  103.  25096200.    103.     NA     NA
#>  4 2016-01-07 100.  101.   97.3  97.9 45172900.     97.9    NA     NA
#>  5 2016-01-08  99.9 100.   97.0  97.3 35402300.     97.3    NA     NA
#>  6 2016-01-11  97.9  98.6  95.4  97.5 29873100.     97.5    NA     NA
#>  7 2016-01-12  99.0 100.0  97.6  99.4 28395400.     99.4    NA     NA
#>  8 2016-01-13 101.  101.   95.2  95.4 33410600.     95.4    NA     NA
#>  9 2016-01-14  95.8  98.9  92.4  98.4 48658600.     98.4    NA     NA
#> 10 2016-01-15  94.0  96.4  93.5  95.0 46132800.     95.0    NA     NA
#> # ... with 242 more rows
…
