Core Functions in tidyquant • tidyquant
…
2.1 Yahoo! Finance

The stock prices can be retrieved succinctly using
get = "stock.prices". This returns stock price data from
Yahoo Finance.

aapl_prices  <- tq_get("AAPL", get = "stock.prices", from = " 1990-01-01")
aapl_prices 

## # A tibble: 8,898 × 8
##    symbol date        open  high   low close    volume adjusted
##    <chr>  <date>     <dbl> <dbl> <dbl> <dbl>     <dbl>    <dbl>
##  1 AAPL   1990-01-02 0.315 0.335 0.312 0.333 183198400    0.262
##  2 AAPL   1990-01-03 0.339 0.339 0.335 0.335 207995200    0.264
##  3 AAPL   1990-01-04 0.342 0.346 0.333 0.336 221513600    0.264
##  4 AAPL   1990-01-05 0.337 0.342 0.330 0.337 123312000    0.265
##  5 AAPL   1990-01-08 0.335 0.339 0.330 0.339 101572800    0.267
##  6 AAPL   1990-01-09 0.339 0.339 0.330 0.336  86139200    0.264
##  7 AAPL   1990-01-10 0.336 0.336 0.319 0.321 199718400    0.253
##  8 AAPL   1990-01-11 0.324 0.324 0.308 0.308 211052800    0.243
##  9 AAPL   1990-01-12 0.306 0.310 0.301 0.308 171897600    0.243
## 10 AAPL   1990-01-15 0.308 0.319 0.306 0.306 161739200    0.241
## # ℹ 8,888 more rows

We can get multiple stocks:

stocks <- c("AAPL", "META", "NFLX") %>%
    tq_get(from = "2013-01-01",
           to   = "2017-01-01")
stocks

## # A tibble: 3,024 × 8
##    symbol date        open  high   low close    volume adjusted
##    <chr>  <date>     <dbl> <dbl> <dbl> <dbl>     <dbl>    <dbl>
##  1 AAPL   2013-01-02  19.8  19.8  19.3  19.6 560518000     16.7
##  2 AAPL   2013-01-03  19.6  19.6  19.3  19.4 352965200     16.5
##  3 AAPL   2013-01-04  19.2  19.2  18.8  18.8 594333600     16.0
##  4 AAPL   2013-01-07  18.6  18.9  18.4  18.7 484156400     15.9
##  5 AAPL   2013-01-08  18.9  19.0  18.6  18.8 458707200     15.9
##  6 AAPL   2013-01-09  18.7  18.8  18.4  18.5 407604400     15.7
##  7 AAPL   2013-01-10  18.9  18.9  18.4  18.7 601146000     15.9
##  8 AAPL   2013-01-11  18.6  18.8  18.5  18.6 350506800     15.8
##  9 AAPL   2013-01-14  18.0  18.1  17.8  17.9 734207600     15.2
## 10 AAPL   2013-01-15  17.8  17.8  17.3  17.4 876772400     14.8
## # ℹ 3,014 more rows
…
The data source is Yahoo Finance (https://finance.yahoo.com/) and Yahoo Finance Japan.

2.2 FRED Economic Data

A wealth of economic data can be extracted from the Federal Reserve
Economic Data (FRED) database. The FRED contains over 10K data sets that
are free to use. See the FRED categories to
narrow down the data base and to get data codes. The WTI Crude Oil
Prices are shown below.

wti_price_usd <- tq_get("DCOILWTICO", get = "economic.data")
wti_price_usd 

## # A tibble: 2,693 × 3
##    symbol     date       price
##    <chr>      <date>     <dbl>
##  1 DCOILWTICO 2015-01-01  NA  
##  2 DCOILWTICO 2015-01-02  52.7
##  3 DCOILWTICO 2015-01-05  50.0
##  4 DCOILWTICO 2015-01-06  48.0
##  5 DCOILWTICO 2015-01-07  48.7
##  6 DCOILWTICO 2015-01-08  48.8
##  7 DCOILWTICO 2015-01-09  48.4
##  8 DCOILWTICO 2015-01-12  46.1
##  9 DCOILWTICO 2015-01-13  45.9
## 10 DCOILWTICO 2015-01-14  48.5
## # ℹ 2,683 more rows
…
3.0 Mutate Quantitative Data

Mutating functions enable the xts/zoo,
quantmod and TTR functions to shine. We’ll
touch on the mutation functions briefly using the FANG data
set, which consists of daily prices for META, AMZN, GOOG, and NFLX from
the beginning of 2013 to the end of 2016. We’ll apply the functions to
grouped data sets to get a feel for how each works

FANG

## # A tibble: 4,032 × 8
##    symbol date        open  high   low close    volume adjusted
##    <chr>  <date>     <dbl> <dbl> <dbl> <dbl>     <dbl>    <dbl>
##  1 META   2013-01-02  27.4  28.2  27.4  28    69846400     28  
##  2 META   2013-01-03  27.9  28.5  27.6  27.8  63140600     27.8
##  3 META   2013-01-04  28.0  28.9  27.8  28.8  72715400     28.8
##  4 META   2013-01-07  28.7  29.8  28.6  29.4  83781800     29.4
##  5 META   2013-01-08  29.5  29.6  28.9  29.1  45871300     29.1
##  6 META   2013-01-09  29.7  30.6  29.5  30.6 104787700     30.6
##  7 META   2013-01-10  30.6  31.5  30.3  31.3  95316400     31.3
##  8 META   2013-01-11  31.3  32.0  31.1  31.7  89598000     31.7
##  9 META   2013-01-14  32.1  32.2  30.6  31.0  98892800     31.0
## 10 META   2013-01-15  30.6  31.7  29.9  30.1 173242600     30.1
## # ℹ 4,022 more rows
…
3.1 Transmute Quantitative Data, tq_transmute

Transmute the results of tq_get(). Transmute here holds
almost the same meaning as in dplyr, only the newly created
columns will be returned, but with tq_transmute(), the
number of rows returned can be different than the original data frame.
This is important for changing periodicity. An example is periodicity
aggregation from daily to monthly.

FANG %>%
    group_by(symbol) %>%
    tq_transmute(select = adjusted, mutate_fun = to.monthly, indexAt = "lastof")

## # A tibble: 192 × 3
## # Groups:   symbol [4]
##    symbol date       adjusted
##    <chr>  <date>        <dbl>
##  1 META   2013-01-31     31.0
##  2 META   2013-02-28     27.2
##  3 META   2013-03-31     25.6
##  4 META   2013-04-30     27.8
##  5 META   2013-05-31     24.4
##  6 META   2013-06-30     24.9
##  7 META   2013-07-31     36.8
##  8 META   2013-08-31     41.3
##  9 META   2013-09-30     50.2
## 10 META   2013-10-31     50.2
## # ℹ 182 more rows
…
wti_prices <- tq_get("DCOILWTICO", get = "economic.data") 

wti_prices %>%    
    tq_transmute(mutate_fun = to.period,
                 period     = "months", 
                 col_rename = "WTI Price")

## # A tibble: 124 × 2
##    date       `WTI Price`
##    <date>           <dbl>
##  1 2015-01-30        47.8
##  2 2015-02-27        49.8
##  3 2015-03-31        47.7
##  4 2015-04-30        59.6
##  5 2015-05-29        60.2
##  6 2015-06-30        59.5
##  7 2015-07-31        47.1
##  8 2015-08-31        49.2
##  9 2015-09-30        45.1
## 10 2015-10-30        46.6
## # ℹ 114 more rows
…
Adds a column or set of columns to the tibble with the calculated
attributes (hence the original tibble is returned, mutated with the
additional columns). An example is getting the MACD from
close, which mutates the original input by adding MACD and
Signal columns. Note that we can quickly rename the columns using the
col_rename argument.

FANG %>%
    group_by(symbol) %>%
    tq_mutate(select     = close, 
              mutate_fun = MACD, 
              col_rename = c("MACD", "Signal"))

## # A tibble: 4,032 × 10
## # Groups:   symbol [4]
##    symbol date        open  high   low close    volume adjusted  MACD Signal
##    <chr>  <date>     <dbl> <dbl> <dbl> <dbl>     <dbl>    <dbl> <dbl>  <dbl>
##  1 META   2013-01-02  27.4  28.2  27.4  28    69846400     28      NA     NA
##  2 META   2013-01-03  27.9  28.5  27.6  27.8  63140600     27.8    NA     NA
##  3 META   2013-01-04  28.0  28.9  27.8  28.8  72715400     28.8    NA     NA
##  4 META   2013-01-07  28.7  29.8  28.6  29.4  83781800     29.4    NA     NA
##  5 META   2013-01-08  29.5  29.6  28.9  29.1  45871300     29.1    NA     NA
##  6 META   2013-01-09  29.7  30.6  29.5  30.6 104787700     30.6    NA     NA
##  7 META   2013-01-10  30.6  31.5  30.3  31.3  95316400     31.3    NA     NA
##  8 META   2013-01-11  31.3  32.0  31.1  31.7  89598000     31.7    NA     NA
##  9 META   2013-01-14  32.1  32.2  30.6  31.0  98892800     31.0    NA     NA
## 10 META   2013-01-15  30.6  31.7  29.9  30.1 173242600     30.1    NA     NA
## # ℹ 4,022 more rows
…
First, get combined returns. The asset and baseline returns should be
in wide format, which is needed for the lm function in the
next step.

fb_returns <- tq_get("META", get  = "stock.prices", from = "2016-01-01", to   = "2016-12-31") %>%
    tq_transmute(adjusted, periodReturn, period = "weekly", col_rename = "fb.returns")

xlk_returns <- tq_get("XLK", from = "2016-01-01", to = "2016-12-31") %>%
    tq_transmute(adjusted, periodReturn, period = "weekly", col_rename = "xlk.returns")

returns_combined <- left_join(fb_returns, xlk_returns, by = "date")
returns_combined

## # A tibble: 52 × 3
##    date       fb.returns xlk.returns
##    <date>          <dbl>       <dbl>
##  1 2016-01-08   -0.0478     -0.0516 
##  2 2016-01-15   -0.0242     -0.0187 
##  3 2016-01-22    0.0313      0.0264 
##  4 2016-01-29    0.146       0.0213 
##  5 2016-02-05   -0.0725     -0.0422 
##  6 2016-02-12   -0.0198     -0.00582
##  7 2016-02-19    0.0251      0.0354 
##  8 2016-02-26    0.0320      0.0148 
##  9 2016-03-04    0.00436     0.0281 
## 10 2016-03-11    0.00941     0.0106 
## # ℹ 42 more rows
…
returns_combined %>%
    tq_mutate(mutate_fun = rollapply,
              width      = 12,
              FUN        = regr_fun,
              by.column  = FALSE,
              col_rename = c("coef.0", "coef.1"))

## # A tibble: 52 × 5
##    date       fb.returns xlk.returns coef.0 coef.1
##    <date>          <dbl>       <dbl>  <dbl>  <dbl>
##  1 2016-01-08   -0.0478     -0.0516      NA     NA
##  2 2016-01-15   -0.0242     -0.0187      NA     NA
##  3 2016-01-22    0.0313      0.0264      NA     NA
##  4 2016-01-29    0.146       0.0213      NA     NA
##  5 2016-02-05   -0.0725     -0.0422      NA     NA
##  6 2016-02-12   -0.0198     -0.00582     NA     NA
##  7 2016-02-19    0.0251      0.0354      NA     NA
##  8 2016-02-26    0.0320      0.0148      NA     NA
##  9 2016-03-04    0.00436     0.0281      NA     NA
## 10 2016-03-11    0.00941     0.0106      NA     NA
## # ℹ 42 more rows

returns_combined

## # A tibble: 52 × 3
##    date       fb.returns xlk.returns
##    <date>          <dbl>       <dbl>
##  1 2016-01-08   -0.0478     -0.0516 
##  2 2016-01-15   -0.0242     -0.0187 
##  3 2016-01-22    0.0313      0.0264 
##  4 2016-01-29    0.146       0.0213 
##  5 2016-02-05   -0.0725     -0.0422 
##  6 2016-02-12   -0.0198     -0.00582
##  7 2016-02-19    0.0251      0.0354 
##  8 2016-02-26    0.0320      0.0148 
##  9 2016-03-04    0.00436     0.0281 
## 10 2016-03-11    0.00941     0.0106 
## # ℹ 42 more rows
…
EVWMA (exponential volume-weighted moving average) requires two
inputs, price and volume. To work with these columns, we can switch to
the xy variants, tq_transmute_xy() and
tq_mutate_xy(). The only difference is instead of the
select argument, you use x and y
arguments to pass the columns needed based on the
mutate_fun documentation.

FANG %>%
    group_by(symbol) %>%
    tq_mutate_xy(x = close, y = volume, 
                 mutate_fun = EVWMA, col_rename = "EVWMA")

## # A tibble: 4,032 × 9
## # Groups:   symbol [4]
##    symbol date        open  high   low close    volume adjusted EVWMA
##    <chr>  <date>     <dbl> <dbl> <dbl> <dbl>     <dbl>    <dbl> <dbl>
##  1 META   2013-01-02  27.4  28.2  27.4  28    69846400     28    NA  
##  2 META   2013-01-03  27.9  28.5  27.6  27.8  63140600     27.8  NA  
##  3 META   2013-01-04  28.0  28.9  27.8  28.8  72715400     28.8  NA  
##  4 META   2013-01-07  28.7  29.8  28.6  29.4  83781800     29.4  NA  
##  5 META   2013-01-08  29.5  29.6  28.9  29.1  45871300     29.1  NA  
##  6 META   2013-01-09  29.7  30.6  29.5  30.6 104787700     30.6  NA  
##  7 META   2013-01-10  30.6  31.5  30.3  31.3  95316400     31.3  NA  
##  8 META   2013-01-11  31.3  32.0  31.1  31.7  89598000     31.7  NA  
##  9 META   2013-01-14  32.1  32.2  30.6  31.0  98892800     31.0  NA  
## 10 META   2013-01-15  30.6  31.7  29.9  30.1 173242600     30.1  30.1
## # ℹ 4,022 more rows
…
