…
## 2.0 Quantitative Power In Action

We’ll go through some examples, but first let’s get some data. The
`FANG` data set will be used which consists of stock prices for META,
AMZN, NFLX, and GOOG from the beginning of 2013 to the end of 2016.

``` r
FANG
```

    ## # A tibble: 4,032 × 8
    ##    symbol date        open  high   low close    volume adjusted
    ##    <chr>  <date>     <dbl> <dbl> <dbl> <dbl>     <dbl>    <dbl>
    ##  1 META   2013-01-02  27.4  28.2  27.4  28    69846400     28  
    ##  2 META   2013-01-03  27.9  28.5  27.6  27.8  63140600     27.8
    ##  3 META   2013-01-04  28.0  28.9  27.8  28.8  72715400     28.8
    ##  4 META   2013-01-07  28.7  29.8  28.6  29.4  83781800     29.4
    ##  5 META   2013-01-08  29.5  29.6  28.9  29.1  45871300     29.1
    ##  6 META   2013-01-09  29.7  30.6  29.5  30.6 104787700     30.6
    ##  7 META   2013-01-10  30.6  31.5  30.3  31.3  95316400     31.3
    ##  8 META   2013-01-11  31.3  32.0  31.1  31.7  89598000     31.7
    ##  9 META   2013-01-14  32.1  32.2  30.6  31.0  98892800     31.0
    ## 10 META   2013-01-15  30.6  31.7  29.9  30.1 173242600     30.1
    ## # ℹ 4,022 more rows
…
``` r
FANG %>%
    group_by(symbol) %>%
    tq_transmute(select     = open:volume, 
                 mutate_fun = to.period, 
                 period     = "months")
```

    ## # A tibble: 192 × 7
    ## # Groups:   symbol [4]
    ##    symbol date        open  high   low close    volume
    ##    <chr>  <date>     <dbl> <dbl> <dbl> <dbl>     <dbl>
    ##  1 META   2013-01-31  29.2  31.5  28.7  31.0 190744900
    ##  2 META   2013-02-28  26.8  27.3  26.3  27.2  83027800
    ##  3 META   2013-03-28  26.1  26.2  25.5  25.6  28585700
    ##  4 META   2013-04-30  27.1  27.8  27.0  27.8  36245700
    ##  5 META   2013-05-31  24.6  25.0  24.3  24.4  35925000
    ##  6 META   2013-06-28  24.7  25.0  24.4  24.9  96778900
    ##  7 META   2013-07-31  38.0  38.3  36.3  36.8 154828700
    ##  8 META   2013-08-30  42.0  42.3  41.1  41.3  67735100
    ##  9 META   2013-09-30  50.1  51.6  49.8  50.2 100095000
    ## 10 META   2013-10-31  47.2  52    46.5  50.2 248809000
    ## # ℹ 182 more rows
…
Next, join the asset returns with the baseline returns by date.

``` r
returns_joined <- left_join(FANG_returns_monthly, 
                            baseline_returns_monthly,
                            by = "date")
returns_joined
```

    ## # A tibble: 192 × 4
    ## # Groups:   symbol [4]
    ##    symbol date       monthly.returns.x monthly.returns.y
    ##    <chr>  <date>                 <dbl>             <dbl>
    ##  1 META   2013-01-31          0.106             -0.0138 
    ##  2 META   2013-02-28         -0.120              0.00782
    ##  3 META   2013-03-28         -0.0613             0.0258 
    ##  4 META   2013-04-30          0.0856             0.0175 
    ##  5 META   2013-05-31         -0.123              0.0279 
    ##  6 META   2013-06-28          0.0218            -0.0289 
    ##  7 META   2013-07-31          0.479              0.0373 
    ##  8 META   2013-08-30          0.122             -0.0104 
    ##  9 META   2013-09-30          0.217              0.0253 
    ## 10 META   2013-10-31         -0.000398           0.0502 
    ## # ℹ 182 more rows
…
``` r
FANG_macd <- FANG %>%
    group_by(symbol) %>%
    tq_mutate(select     = close, 
              mutate_fun = MACD, 
              nFast      = 12, 
              nSlow      = 26, 
              nSig       = 9, 
              maType     = SMA) %>%
    mutate(diff = macd - signal) %>%
    select(-(open:volume))
FANG_macd
```

    ## # A tibble: 4,032 × 6
    ## # Groups:   symbol [4]
    ##    symbol date       adjusted  macd signal  diff
    ##    <chr>  <date>        <dbl> <dbl>  <dbl> <dbl>
    ##  1 META   2013-01-02     28      NA     NA    NA
    ##  2 META   2013-01-03     27.8    NA     NA    NA
    ##  3 META   2013-01-04     28.8    NA     NA    NA
    ##  4 META   2013-01-07     29.4    NA     NA    NA
    ##  5 META   2013-01-08     29.1    NA     NA    NA
    ##  6 META   2013-01-09     30.6    NA     NA    NA
    ##  7 META   2013-01-10     31.3    NA     NA    NA
    ##  8 META   2013-01-11     31.7    NA     NA    NA
    ##  9 META   2013-01-14     31.0    NA     NA    NA
    ## 10 META   2013-01-15     30.1    NA     NA    NA
    ## # ℹ 4,022 more rows
…
``` r
FANG_max_by_qtr <- FANG %>%
    group_by(symbol) %>%
    tq_transmute(select     = adjusted, 
                 mutate_fun = apply.quarterly, 
                 FUN        = max, 
                 col_rename = "max.close") %>%
    mutate(year.qtr = paste0(year(date), "-Q", quarter(date))) %>%
    select(-date)
FANG_max_by_qtr
```

    ## # A tibble: 64 × 3
    ## # Groups:   symbol [4]
    ##    symbol max.close year.qtr
    ##    <chr>      <dbl> <chr>   
    ##  1 META        32.5 2013-Q1 
    ##  2 META        29.0 2013-Q2 
    ##  3 META        51.2 2013-Q3 
    ##  4 META        58.0 2013-Q4 
    ##  5 META        72.0 2014-Q1 
    ##  6 META        67.6 2014-Q2 
    ##  7 META        79.0 2014-Q3 
    ##  8 META        81.4 2014-Q4 
    ##  9 META        85.3 2015-Q1 
    ## 10 META        88.9 2015-Q2 
    ## # ℹ 54 more rows
…
FANG_by_qtr <- left_join(FANG_max_by_qtr, FANG_min_by_qtr,
                         by = c("symbol"   = "symbol",
                                "year.qtr" = "year.qtr"))
FANG_by_qtr
```

    ## # A tibble: 64 × 4
    ## # Groups:   symbol [4]
    ##    symbol max.close year.qtr min.close
    ##    <chr>      <dbl> <chr>        <dbl>
    ##  1 META        32.5 2013-Q1       25.1
    ##  2 META        29.0 2013-Q2       22.9
    ##  3 META        51.2 2013-Q3       24.4
    ##  4 META        58.0 2013-Q4       44.8
    ##  5 META        72.0 2014-Q1       53.5
    ##  6 META        67.6 2014-Q2       56.1
    ##  7 META        79.0 2014-Q3       62.8
    ##  8 META        81.4 2014-Q4       72.6
    ##  9 META        85.3 2015-Q1       74.1
    ## 10 META        88.9 2015-Q2       77.5
    ## # ℹ 54 more rows
…
``` r
stock_pairs <- stock_pairs %>%
         tq_mutate(mutate_fun = rollapply,
                   width      = 90,
                   FUN        = regr_fun,
                   by.column  = FALSE,
                   col_rename = c("coef.0", "coef.1"))
stock_pairs
```

    ## # A tibble: 504 × 5
    ##    date             MA        V coef.0 coef.1
    ##    <date>        <dbl>    <dbl>  <dbl>  <dbl>
    ##  1 2015-01-02  0        0           NA     NA
    ##  2 2015-01-05 -0.0285  -0.0223      NA     NA
    ##  3 2015-01-06 -0.00216 -0.00646     NA     NA
    ##  4 2015-01-07  0.0154   0.0133      NA     NA
    ##  5 2015-01-08  0.0154   0.0133      NA     NA
    ##  6 2015-01-09 -0.0128  -0.0149      NA     NA
    ##  7 2015-01-12 -0.0129  -0.00196     NA     NA
    ##  8 2015-01-13  0.00228  0.00292     NA     NA
    ##  9 2015-01-14 -0.00108 -0.0202      NA     NA
    ## 10 2015-01-15 -0.0146  -0.00955     NA     NA
    ## # ℹ 494 more rows
…
``` r
FANG %>%
    group_by(symbol) %>%
    tq_transmute(adjusted, periodReturn, period = "daily") %>%
    tq_transmute(daily.returns, Return.clean, alpha = 0.05) %>%
    tq_transmute(daily.returns, Return.excess, Rf = 0.03 / 252)
```

    ## # A tibble: 4,032 × 3
    ## # Groups:   symbol [4]
    ##    symbol date       `daily.returns > Rf`
    ##    <chr>  <date>                    <dbl>
    ##  1 META   2013-01-02            -0.000119
    ##  2 META   2013-01-03            -0.00833 
    ##  3 META   2013-01-04             0.0355  
    ##  4 META   2013-01-07             0.0228  
    ##  5 META   2013-01-08            -0.0124  
    ##  6 META   2013-01-09             0.0525  
    ##  7 META   2013-01-10             0.0231  
    ##  8 META   2013-01-11             0.0133  
    ##  9 META   2013-01-14            -0.0244  
    ## 10 META   2013-01-15            -0.0276  
    ## # ℹ 4,022 more rows
