Scaling and Modeling with tidyquant • tidyquant
…
# Loads tidyquant, lubridate, xts, quantmod, TTR, and PerformanceAnalytics
library(tidyverse)
library(tidyquant)  

1.0 Scaling the Getting of Financial Data

A very basic example is retrieving the stock prices for multiple stocks. There are three primary ways to do this:

Method 1: Map a character vector with multiple stock symbols

c("AAPL", "GOOG", "FB") %>%
    tq_get(get = "stock.prices", from = "2016-01-01", to = "2017-01-01")

## # A tibble: 504 × 8
##    symbol date        open  high   low close    volume adjusted
##    <chr>  <date>     <dbl> <dbl> <dbl> <dbl>     <dbl>    <dbl>
##  1 AAPL   2016-01-04  25.7  26.3  25.5  26.3 270597600     24.1
##  2 AAPL   2016-01-05  26.4  26.5  25.6  25.7 223164000     23.5
##  3 AAPL   2016-01-06  25.1  25.6  25.0  25.2 273829600     23.0
##  4 AAPL   2016-01-07  24.7  25.0  24.1  24.1 324377600     22.1
##  5 AAPL   2016-01-08  24.6  24.8  24.2  24.2 283192000     22.2
##  6 AAPL   2016-01-11  24.7  24.8  24.3  24.6 198957600     22.6
##  7 AAPL   2016-01-12  25.1  25.2  24.7  25.0 196616800     22.9
##  8 AAPL   2016-01-13  25.1  25.3  24.3  24.3 249758400     22.3
##  9 AAPL   2016-01-14  24.5  25.1  23.9  24.9 252680400     22.8
## 10 AAPL   2016-01-15  24.0  24.4  23.8  24.3 319335600     22.2
## # … with 494 more rows
…
## # A tibble: 3 × 2
##   stocks industry  
##   <chr>  <chr>     
## 1 AAPL   Technology
## 2 JPM    Financial 
## 3 CVX    Energy

Second, send the stock list to tq_get. Notice how the symbol and industry columns are automatically expanded the length of the stock prices.

stock_list %>%
    tq_get(get = "stock.prices", from = "2016-01-01", to = "2017-01-01")

## # A tibble: 756 × 9
##    stocks industry   date        open  high   low close    volume adjusted
##    <chr>  <chr>      <date>     <dbl> <dbl> <dbl> <dbl>     <dbl>    <dbl>
##  1 AAPL   Technology 2016-01-04  25.7  26.3  25.5  26.3 270597600     24.1
##  2 AAPL   Technology 2016-01-05  26.4  26.5  25.6  25.7 223164000     23.5
##  3 AAPL   Technology 2016-01-06  25.1  25.6  25.0  25.2 273829600     23.0
##  4 AAPL   Technology 2016-01-07  24.7  25.0  24.1  24.1 324377600     22.1
##  5 AAPL   Technology 2016-01-08  24.6  24.8  24.2  24.2 283192000     22.2
##  6 AAPL   Technology 2016-01-11  24.7  24.8  24.3  24.6 198957600     22.6
##  7 AAPL   Technology 2016-01-12  25.1  25.2  24.7  25.0 196616800     22.9
##  8 AAPL   Technology 2016-01-13  25.1  25.3  24.3  24.3 249758400     22.3
##  9 AAPL   Technology 2016-01-14  24.5  25.1  23.9  24.9 252680400     22.8
## 10 AAPL   Technology 2016-01-15  24.0  24.4  23.8  24.3 319335600     22.2
## # … with 746 more rows

Method 2B: Use index or exchange

Get an index…

tq_index("DOW")

## # A tibble: 30 × 8
##    symbol company                    ident…¹ sedol weight sector share…² local…³
##    <chr>  <chr>                      <chr>   <chr>  <dbl> <chr>    <dbl> <chr>  
##  1 UNH    UnitedHealth Group Incorp… 91324P… 2917… 0.101  Healt… 5978709 USD    
##  2 GS     Goldman Sachs Group Inc.   38141G… 2407… 0.0751 Finan… 5978709 USD    
##  3 HD     Home Depot Inc.            437076… 2434… 0.0603 Consu… 5978709 USD    
##  4 AMGN   Amgen Inc.                 031162… 2023… 0.0561 Healt… 5978709 USD    
##  5 MCD    McDonald's Corporation     580135… 2550… 0.0535 Consu… 5978709 USD    
##  6 MSFT   Microsoft Corporation      594918… 2588… 0.0475 Infor… 5978709 USD    
##  7 CAT    Caterpillar Inc.           149123… 2180… 0.0465 Indus… 5978709 USD    
##  8 HON    Honeywell International I… 438516… 2020… 0.0419 Indus… 5978709 USD    
##  9 V      Visa Inc. Class A          92826C… B2PZ… 0.0407 Infor… 5978709 USD    
## 10 CVX    Chevron Corporation        166764… 2838… 0.0367 Energy 5978709 USD    
## # … with 20 more rows, and abbreviated variable names ¹​identifier,
## #   ²​shares_held, ³​local_currency

…or, get an exchange.

tq_exchange("NYSE")

Send the index or exchange to tq_get. Important Note: This can take several minutes depending on the size of the index or exchange, which is why only the first three stocks are evaluated in the vignette.

tq_index("DOW") %>%
    slice(1:3) %>%
    tq_get(get = "stock.prices")

## # A tibble: 8,208 × 15
##    symbol company   ident…¹ sedol weight sector share…² local…³ date        open
##    <chr>  <chr>     <chr>   <chr>  <dbl> <chr>    <dbl> <chr>   <date>     <dbl>
##  1 UNH    UnitedHe… 91324P… 2917…  0.101 Healt… 5978709 USD     2012-01-03  51.2
##  2 UNH    UnitedHe… 91324P… 2917…  0.101 Healt… 5978709 USD     2012-01-04  51.3
##  3 UNH    UnitedHe… 91324P… 2917…  0.101 Healt… 5978709 USD     2012-01-05  51.9
##  4 UNH    UnitedHe… 91324P… 2917…  0.101 Healt… 5978709 USD     2012-01-06  52.8
##  5 UNH    UnitedHe… 91324P… 2917…  0.101 Healt… 5978709 USD     2012-01-09  52.6
##  6 UNH    UnitedHe… 91324P… 2917…  0.101 Healt… 5978709 USD     2012-01-10  53.0
##  7 UNH    UnitedHe… 91324P… 2917…  0.101 Healt… 5978709 USD     2012-01-11  52.5
##  8 UNH    UnitedHe… 91324P… 2917…  0.101 Healt… 5978709 USD     2012-01-12  53.2
##  9 UNH    UnitedHe… 91324P… 2917…  0.101 Healt… 5978709 USD     2012-01-13  52.7
## 10 UNH    UnitedHe… 91324P… 2917…  0.101 Healt… 5978709 USD     2012-01-17  53.0
## # … with 8,198 more rows, 5 more variables: high <dbl>, low <dbl>, close <dbl>,
## #   volume <dbl>, adjusted <dbl>, and abbreviated variable names ¹​identifier,
## #   ²​shares_held, ³​local_currency

You can use any applicable “getter” to get data for every stock in an index or an exchange! This includes: “stock.prices”, “key.ratios”, “key.stats”, and more.

2.0 Scaling the Mutation of Financial Data

Once you get the data, you typically want to do something with it. You can easily do this at scale. Let’s get the yearly returns for multiple stocks using tq_transmute. First, get the prices. We’ll use the FANG data set, but you typically will use tq_get to retrieve data in “tibble” format.

data("FANG")

FANG

## # A tibble: 4,032 × 8
##    symbol date        open  high   low close    volume adjusted
##    <chr>  <date>     <dbl> <dbl> <dbl> <dbl>     <dbl>    <dbl>
##  1 FB     2013-01-02  27.4  28.2  27.4  28    69846400     28  
##  2 FB     2013-01-03  27.9  28.5  27.6  27.8  63140600     27.8
##  3 FB     2013-01-04  28.0  28.9  27.8  28.8  72715400     28.8
##  4 FB     2013-01-07  28.7  29.8  28.6  29.4  83781800     29.4
##  5 FB     2013-01-08  29.5  29.6  28.9  29.1  45871300     29.1
##  6 FB     2013-01-09  29.7  30.6  29.5  30.6 104787700     30.6
##  7 FB     2013-01-10  30.6  31.5  30.3  31.3  95316400     31.3
##  8 FB     2013-01-11  31.3  32.0  31.1  31.7  89598000     31.7
##  9 FB     2013-01-14  32.1  32.2  30.6  31.0  98892800     31.0
## 10 FB     2013-01-15  30.6  31.7  29.9  30.1 173242600     30.1
## # … with 4,022 more rows
…
Let’s go through an example to illustrate.

Example: Applying a Regression Model to Detect a Positive Trend

In this example, we’ll use a simple linear model to identify the trend in annual returns to determine if the stock returns are decreasing or increasing over time.

Analyze a Single Stock

First, let’s collect stock data with tq_get()

AAPL <- tq_get("AAPL", from = "2007-01-01", to = "2016-12-31")
AAPL

## # A tibble: 2,518 × 8
##    symbol date        open  high   low close     volume adjusted
##    <chr>  <date>     <dbl> <dbl> <dbl> <dbl>      <dbl>    <dbl>
##  1 AAPL   2007-01-03  3.08  3.09  2.92  2.99 1238319600     2.55
##  2 AAPL   2007-01-04  3.00  3.07  2.99  3.06  847260400     2.61
##  3 AAPL   2007-01-05  3.06  3.08  3.01  3.04  834741600     2.59
##  4 AAPL   2007-01-08  3.07  3.09  3.05  3.05  797106800     2.60
##  5 AAPL   2007-01-09  3.09  3.32  3.04  3.31 3349298400     2.82
##  6 AAPL   2007-01-10  3.38  3.49  3.34  3.46 2952880000     2.95
##  7 AAPL   2007-01-11  3.43  3.46  3.40  3.42 1440252800     2.92
##  8 AAPL   2007-01-12  3.38  3.40  3.33  3.38 1312690400     2.88
##  9 AAPL   2007-01-16  3.42  3.47  3.41  3.47 1244076400     2.96
## 10 AAPL   2007-01-17  3.48  3.49  3.39  3.39 1646260000     2.89
## # … with 2,508 more rows
…
Cons: Errors can be inadvertently handled or flow downstream if the users does not read the warnings

Bad Apples Fail Gracefully, tq_get

Let’s see an example when using tq_get() to get the stock prices for a long list of stocks with one BAD APPLE. The argument complete_cases comes in handy. The default is TRUE, which removes “bad apples” so future analysis have complete cases to compute on. Note that a gentle warning stating that an error occurred and was dealt with by removing the rows from the results.

c("AAPL", "GOOG", "BAD APPLE") %>%
    tq_get(get = "stock.prices", complete_cases = TRUE)

## Warning: x = 'BAD APPLE', get = 'stock.prices': Error in getSymbols.yahoo(Symbols = "BAD APPLE", env = <environment>, : Unable to import "BAD APPLE".
## BAD APPLE download failed after two attempts. Error message:
## HTTP error 400.
##  Removing BAD APPLE.

## # A tibble: 5,472 × 8
##    symbol date        open  high   low close    volume adjusted
##    <chr>  <date>     <dbl> <dbl> <dbl> <dbl>     <dbl>    <dbl>
##  1 AAPL   2012-01-03  14.6  14.7  14.6  14.7 302220800     12.5
##  2 AAPL   2012-01-04  14.6  14.8  14.6  14.8 260022000     12.6
##  3 AAPL   2012-01-05  14.8  14.9  14.7  14.9 271269600     12.7
##  4 AAPL   2012-01-06  15.0  15.1  15.0  15.1 318292800     12.9
##  5 AAPL   2012-01-09  15.2  15.3  15.0  15.1 394024400     12.8
##  6 AAPL   2012-01-10  15.2  15.2  15.1  15.1 258196400     12.9
##  7 AAPL   2012-01-11  15.1  15.1  15.0  15.1 215084800     12.9
##  8 AAPL   2012-01-12  15.1  15.1  15.0  15.0 212587200     12.8
##  9 AAPL   2012-01-13  15.0  15.0  15.0  15.0 226021600     12.8
## 10 AAPL   2012-01-17  15.2  15.2  15.1  15.2 242897200     12.9
## # … with 5,462 more rows

Now switching complete_cases = FALSE will retain any errors as NA values in a nested data frame. Notice that the error message and output change. The error message now states that the NA values exist in the output and the return is a “nested” data structure.

c("AAPL", "GOOG", "BAD APPLE") %>%
    tq_get(get = "stock.prices", complete_cases = FALSE)

## Warning: x = 'BAD APPLE', get = 'stock.prices': Error in getSymbols.yahoo(Symbols = "BAD APPLE", env = <environment>, : Unable to import "BAD APPLE".
## BAD APPLE download failed after two attempts. Error message:
## HTTP error 400.

## # A tibble: 5,473 × 8
##    symbol date        open  high   low close    volume adjusted
##    <chr>  <date>     <dbl> <dbl> <dbl> <dbl>     <dbl>    <dbl>
##  1 AAPL   2012-01-03  14.6  14.7  14.6  14.7 302220800     12.5
##  2 AAPL   2012-01-04  14.6  14.8  14.6  14.8 260022000     12.6
##  3 AAPL   2012-01-05  14.8  14.9  14.7  14.9 271269600     12.7
##  4 AAPL   2012-01-06  15.0  15.1  15.0  15.1 318292800     12.9
##  5 AAPL   2012-01-09  15.2  15.3  15.0  15.1 394024400     12.8
##  6 AAPL   2012-01-10  15.2  15.2  15.1  15.1 258196400     12.9
##  7 AAPL   2012-01-11  15.1  15.1  15.0  15.1 215084800     12.9
##  8 AAPL   2012-01-12  15.1  15.1  15.0  15.0 212587200     12.8
##  9 AAPL   2012-01-13  15.0  15.0  15.0  15.0 226021600     12.8
## 10 AAPL   2012-01-17  15.2  15.2  15.1  15.2 242897200     12.9
## # … with 5,463 more rows
…
