…
## 1.0 Scaling the Getting of Financial Data

A very basic example is retrieving the stock prices for multiple stocks.
There are three primary ways to do this:

### Method 1: Map a character vector with multiple stock symbols

``` r
c("AAPL", "GOOG", "META") %>%
    tq_get(get = "stock.prices", from = "2016-01-01", to = "2017-01-01")
```

    ## # A tibble: 756 × 8
    ##    symbol date        open  high   low close    volume adjusted
    ##    <chr>  <date>     <dbl> <dbl> <dbl> <dbl>     <dbl>    <dbl>
    ##  1 AAPL   2016-01-04  25.7  26.3  25.5  26.3 270597600     23.7
    ##  2 AAPL   2016-01-05  26.4  26.5  25.6  25.7 223164000     23.1
    ##  3 AAPL   2016-01-06  25.1  25.6  25.0  25.2 273829600     22.7
    ##  4 AAPL   2016-01-07  24.7  25.0  24.1  24.1 324377600     21.7
    ##  5 AAPL   2016-01-08  24.6  24.8  24.2  24.2 283192000     21.8
    ##  6 AAPL   2016-01-11  24.7  24.8  24.3  24.6 198957600     22.2
    ##  7 AAPL   2016-01-12  25.1  25.2  24.7  25.0 196616800     22.5
    ##  8 AAPL   2016-01-13  25.1  25.3  24.3  24.3 249758400     21.9
    ##  9 AAPL   2016-01-14  24.5  25.1  23.9  24.9 252680400     22.4
    ## 10 AAPL   2016-01-15  24.0  24.4  23.8  24.3 319335600     21.9
    ## # ℹ 746 more rows
…
Second, send the stock list to `tq_get`. Notice how the symbol and
industry columns are automatically expanded the length of the stock
prices.

``` r
stock_list %>%
    tq_get(get = "stock.prices", from = "2016-01-01", to = "2017-01-01")
```

    ## # A tibble: 756 × 9
    ##    stocks industry   date        open  high   low close    volume adjusted
    ##    <chr>  <chr>      <date>     <dbl> <dbl> <dbl> <dbl>     <dbl>    <dbl>
    ##  1 AAPL   Technology 2016-01-04  25.7  26.3  25.5  26.3 270597600     23.7
    ##  2 AAPL   Technology 2016-01-05  26.4  26.5  25.6  25.7 223164000     23.1
    ##  3 AAPL   Technology 2016-01-06  25.1  25.6  25.0  25.2 273829600     22.7
    ##  4 AAPL   Technology 2016-01-07  24.7  25.0  24.1  24.1 324377600     21.7
    ##  5 AAPL   Technology 2016-01-08  24.6  24.8  24.2  24.2 283192000     21.8
    ##  6 AAPL   Technology 2016-01-11  24.7  24.8  24.3  24.6 198957600     22.2
    ##  7 AAPL   Technology 2016-01-12  25.1  25.2  24.7  25.0 196616800     22.5
    ##  8 AAPL   Technology 2016-01-13  25.1  25.3  24.3  24.3 249758400     21.9
    ##  9 AAPL   Technology 2016-01-14  24.5  25.1  23.9  24.9 252680400     22.4
    ## 10 AAPL   Technology 2016-01-15  24.0  24.4  23.8  24.3 319335600     21.9
    ## # ℹ 746 more rows

#### Method 2B: Use index or exchange

Get an index…

``` r
tq_index("DOW")
```

    ## # A tibble: 31 × 8
    ##    symbol company      identifier sedol weight sector shares_held local_currency
    ##    <chr>  <chr>        <chr>      <chr>  <dbl> <chr>        <dbl> <chr>         
    ##  1 GS     GOLDMAN SAC… 38141G104  2407… 0.103  -          5636894 USD           
    ##  2 CAT    CATERPILLAR… 149123101  2180… 0.0917 -          5636894 USD           
    ##  3 MSFT   MICROSOFT C… 594918104  2588… 0.0523 -          5636894 USD           
    ##  4 AMGN   AMGEN INC    031162100  2023… 0.0484 -          5636894 USD           
    ##  5 HD     HOME DEPOT … 437076102  2434… 0.0448 -          5636894 USD           
    ##  6 MCD    MCDONALD S … 580135101  2550… 0.0431 -          5636894 USD           
    ##  7 SHW    SHERWIN WIL… 824348106  2804… 0.0422 -          5636894 USD           
    ##  8 V      VISA INC CL… 92826C839  B2PZ… 0.0406 -          5636894 USD           
    ##  9 TRV    TRAVELERS C… 89417E109  2769… 0.0400 -          5636894 USD           
    ## 10 AXP    AMERICAN EX… 025816109  2026… 0.0396 -          5636894 USD           
    ## # ℹ 21 more rows
…
``` r
tq_exchange("NYSE")
```

Send the index or exchange to `tq_get`. *Important Note: This can take
several minutes depending on the size of the index or exchange, which is
why only the first three stocks are evaluated in the vignette.*

``` r
tq_index("DOW") %>%
    slice(1:3) %>%
    tq_get(get = "stock.prices")
```

    ## # A tibble: 7,689 × 15
    ##    symbol company      identifier sedol weight sector shares_held local_currency
    ##    <chr>  <chr>        <chr>      <chr>  <dbl> <chr>        <dbl> <chr>         
    ##  1 GS     GOLDMAN SAC… 38141G104  2407…  0.103 -          5636894 USD           
    ##  2 GS     GOLDMAN SAC… 38141G104  2407…  0.103 -          5636894 USD           
    ##  3 GS     GOLDMAN SAC… 38141G104  2407…  0.103 -          5636894 USD           
    ##  4 GS     GOLDMAN SAC… 38141G104  2407…  0.103 -          5636894 USD           
    ##  5 GS     GOLDMAN SAC… 38141G104  2407…  0.103 -          5636894 USD           
    ##  6 GS     GOLDMAN SAC… 38141G104  2407…  0.103 -          5636894 USD           
    ##  7 GS     GOLDMAN SAC… 38141G104  2407…  0.103 -          5636894 USD           
    ##  8 GS     GOLDMAN SAC… 38141G104  2407…  0.103 -          5636894 USD           
    ##  9 GS     GOLDMAN SAC… 38141G104  2407…  0.103 -          5636894 USD           
    ## 10 GS     GOLDMAN SAC… 38141G104  2407…  0.103 -          5636894 USD           
    ## # ℹ 7,679 more rows
    ## # ℹ 7 more variables: date <date>, open <dbl>, high <dbl>, low <dbl>,
    ## #   close <dbl>, volume <dbl>, adjusted <dbl>
…
## 2.0 Scaling the Mutation of Financial Data

Once you get the data, you typically want to do something with it. You
can easily do this at scale. Let’s get the yearly returns for multiple
stocks using `tq_transmute`. First, get the prices. We’ll use the `FANG`
data set, but you typically will use `tq_get` to retrieve data in
“tibble” format.

``` r
FANG
```

    ## # A tibble: 4,032 × 8
    ##    symbol date        open  high   low close    volume adjusted
    ##    <chr>  <date>     <dbl> <dbl> <dbl> <dbl>     <dbl>    <dbl>
    ##  1 META   2013-01-02  27.4  28.2  27.4  28    69846400     28  
    ##  2 META   2013-01-03  27.9  28.5  27.6  27.8  63140600     27.8
    ##  3 META   2013-01-04  28.0  28.9  27.8  28.8  72715400     28.8
    ##  4 META   2013-01-07  28.7  29.8  28.6  29.4  83781800     29.4
    ##  5 META   2013-01-08  29.5  29.6  28.9  29.1  45871300     29.1
    ##  6 META   2013-01-09  29.7  30.6  29.5  30.6 104787700     30.6
    ##  7 META   2013-01-10  30.6  31.5  30.3  31.3  95316400     31.3
    ##  8 META   2013-01-11  31.3  32.0  31.1  31.7  89598000     31.7
    ##  9 META   2013-01-14  32.1  32.2  30.6  31.0  98892800     31.0
    ## 10 META   2013-01-15  30.6  31.7  29.9  30.1 173242600     30.1
    ## # ℹ 4,022 more rows
…
In this example, we’ll use a simple linear model to identify the trend
in annual returns to determine if the stock returns are decreasing or
increasing over time.

#### Analyze a Single Stock

First, let’s collect stock data with
[`tq_get()`](https://business-science.github.io/tidyquant/reference/tq_get.md)

``` r
AAPL <- tq_get("AAPL", from = "2007-01-01", to = "2016-12-31")
AAPL
```

    ## # A tibble: 2,518 × 8
    ##    symbol date        open  high   low close     volume adjusted
    ##    <chr>  <date>     <dbl> <dbl> <dbl> <dbl>      <dbl>    <dbl>
    ##  1 AAPL   2007-01-03  3.08  3.09  2.92  2.99 1238319600     2.51
    ##  2 AAPL   2007-01-04  3.00  3.07  2.99  3.06  847260400     2.57
    ##  3 AAPL   2007-01-05  3.06  3.08  3.01  3.04  834741600     2.55
    ##  4 AAPL   2007-01-08  3.07  3.09  3.05  3.05  797106800     2.56
    ##  5 AAPL   2007-01-09  3.09  3.32  3.04  3.31 3349298400     2.77
    ##  6 AAPL   2007-01-10  3.38  3.49  3.34  3.46 2952880000     2.91
    ##  7 AAPL   2007-01-11  3.43  3.46  3.40  3.42 1440252800     2.87
    ##  8 AAPL   2007-01-12  3.38  3.39  3.33  3.38 1312690400     2.84
    ##  9 AAPL   2007-01-16  3.42  3.47  3.41  3.47 1244076400     2.91
    ## 10 AAPL   2007-01-17  3.48  3.49  3.39  3.39 1646260000     2.84
    ## # ℹ 2,508 more rows
…
This becomes painful when scaling if the functions return errors. So,
the
[`tq_get()`](https://business-science.github.io/tidyquant/reference/tq_get.md)
function is designed to handle errors *gracefully*. What this means is
an `NA` value is returned when an error is generated along with a
*gentle error warning*.

``` r
tq_get("XYZ", "stock.prices")
```

    ## # A tibble: 2,563 × 8
    ##    symbol date        open  high   low close  volume adjusted
    ##    <chr>  <date>     <dbl> <dbl> <dbl> <dbl>   <dbl>    <dbl>
    ##  1 XYZ    2016-01-04  12.8  12.9  12.1  12.2 2751500     12.2
    ##  2 XYZ    2016-01-05  12.2  12.3  11.5  11.5 2352800     11.5
    ##  3 XYZ    2016-01-06  11.5  11.6  11.0  11.5 1850600     11.5
    ##  4 XYZ    2016-01-07  11.1  11.4  11    11.2 1636000     11.2
    ##  5 XYZ    2016-01-08  11.2  11.5  11.2  11.3  587300     11.3
    ##  6 XYZ    2016-01-11  11.4  11.9  11.4  11.8 1676900     11.8
    ##  7 XYZ    2016-01-12  11.9  12.2  11.7  12.1 2136100     12.1
    ##  8 XYZ    2016-01-13  12.1  12.2  11.1  11.6 2095200     11.6
    ##  9 XYZ    2016-01-14  11.5  11.6  10.8  10.8 1604900     10.8
    ## 10 XYZ    2016-01-15  10.6  10.8  10.1  10.3 1203700     10.3
    ## # ℹ 2,553 more rows
…
``` r
c("AAPL", "GOOG", "BAD APPLE") %>%
    tq_get(get = "stock.prices", complete_cases = TRUE)
```

    ## Warning: There was 1 warning in `dplyr::mutate()`.
    ## ℹ In argument: `data.. = purrr::map(...)`.
    ## Caused by warning:
    ## ! x = 'BAD APPLE', get = 'stock.prices': Error in getSymbols.yahoo(Symbols = "BAD APPLE", env = <environment>, : Unable to import "BAD APPLE".
    ## cannot open the connection
    ##  Removing BAD APPLE.

    ## # A tibble: 5,126 × 8
    ##    symbol date        open  high   low close    volume adjusted
    ##    <chr>  <date>     <dbl> <dbl> <dbl> <dbl>     <dbl>    <dbl>
    ##  1 AAPL   2016-01-04  25.7  26.3  25.5  26.3 270597600     23.7
    ##  2 AAPL   2016-01-05  26.4  26.5  25.6  25.7 223164000     23.1
    ##  3 AAPL   2016-01-06  25.1  25.6  25.0  25.2 273829600     22.7
    ##  4 AAPL   2016-01-07  24.7  25.0  24.1  24.1 324377600     21.7
    ##  5 AAPL   2016-01-08  24.6  24.8  24.2  24.2 283192000     21.8
    ##  6 AAPL   2016-01-11  24.7  24.8  24.3  24.6 198957600     22.2
    ##  7 AAPL   2016-01-12  25.1  25.2  24.7  25.0 196616800     22.5
    ##  8 AAPL   2016-01-13  25.1  25.3  24.3  24.3 249758400     21.9
    ##  9 AAPL   2016-01-14  24.5  25.1  23.9  24.9 252680400     22.4
    ## 10 AAPL   2016-01-15  24.0  24.4  23.8  24.3 319335600     21.9
    ## # ℹ 5,116 more rows
…
``` r
c("AAPL", "GOOG", "BAD APPLE") %>%
    tq_get(get = "stock.prices", complete_cases = FALSE)
```

    ## Warning: There was 1 warning in `dplyr::mutate()`.
    ## ℹ In argument: `data.. = purrr::map(...)`.
    ## Caused by warning:
    ## ! x = 'BAD APPLE', get = 'stock.prices': Error in getSymbols.yahoo(Symbols = "BAD APPLE", env = <environment>, : Unable to import "BAD APPLE".
    ## cannot open the connection

    ## # A tibble: 5,127 × 8
    ##    symbol date        open  high   low close    volume adjusted
    ##    <chr>  <date>     <dbl> <dbl> <dbl> <dbl>     <dbl>    <dbl>
    ##  1 AAPL   2016-01-04  25.7  26.3  25.5  26.3 270597600     23.7
    ##  2 AAPL   2016-01-05  26.4  26.5  25.6  25.7 223164000     23.1
    ##  3 AAPL   2016-01-06  25.1  25.6  25.0  25.2 273829600     22.7
    ##  4 AAPL   2016-01-07  24.7  25.0  24.1  24.1 324377600     21.7
    ##  5 AAPL   2016-01-08  24.6  24.8  24.2  24.2 283192000     21.8
    ##  6 AAPL   2016-01-11  24.7  24.8  24.3  24.6 198957600     22.2
    ##  7 AAPL   2016-01-12  25.1  25.2  24.7  25.0 196616800     22.5
    ##  8 AAPL   2016-01-13  25.1  25.3  24.3  24.3 249758400     21.9
    ##  9 AAPL   2016-01-14  24.5  25.1  23.9  24.9 252680400     22.4
    ## 10 AAPL   2016-01-15  24.0  24.4  23.8  24.3 319335600     21.9
    ## # ℹ 5,117 more rows
…
