…
``` r
Ra <- c("AAPL", "GOOG", "NFLX") %>%
    tq_get(get  = "stock.prices",
           from = "2010-01-01",
           to   = "2015-12-31") %>%
    group_by(symbol) %>%
    tq_transmute(select     = adjusted, 
                 mutate_fun = periodReturn, 
                 period     = "monthly", 
                 col_rename = "Ra")
Ra
```

    ## # A tibble: 216 × 3
    ## # Groups:   symbol [3]
    ##    symbol date            Ra
    ##    <chr>  <date>       <dbl>
    ##  1 AAPL   2010-01-29 -0.103 
    ##  2 AAPL   2010-02-26  0.0654
    ##  3 AAPL   2010-03-31  0.148 
    ##  4 AAPL   2010-04-30  0.111 
    ##  5 AAPL   2010-05-28 -0.0161
    ##  6 AAPL   2010-06-30 -0.0208
    ##  7 AAPL   2010-07-30  0.0227
    ##  8 AAPL   2010-08-31 -0.0550
    ##  9 AAPL   2010-09-30  0.167 
    ## 10 AAPL   2010-10-29  0.0607
    ## # ℹ 206 more rows
…
``` r
Rb <- "XLK" %>%
    tq_get(get  = "stock.prices",
           from = "2010-01-01",
           to   = "2015-12-31") %>%
    tq_transmute(select     = adjusted, 
                 mutate_fun = periodReturn, 
                 period     = "monthly", 
                 col_rename = "Rb")
Rb
```

    ## # A tibble: 72 × 2
    ##    date            Rb
    ##    <date>       <dbl>
    ##  1 2010-01-29 -0.0993
    ##  2 2010-02-26  0.0348
    ##  3 2010-03-31  0.0684
    ##  4 2010-04-30  0.0126
    ##  5 2010-05-28 -0.0748
    ##  6 2010-06-30 -0.0540
    ##  7 2010-07-30  0.0745
    ##  8 2010-08-31 -0.0561
    ##  9 2010-09-30  0.117 
    ## 10 2010-10-29  0.0578
    ## # ℹ 62 more rows

Now, we combine the two data sets using the “date” field using
`left_join` from the `dplyr` package. Review the results and see that we
still have three groups of returns, and columns “Ra” and “Rb” are
side-by-side.

``` r
RaRb <- left_join(Ra, Rb, by = c("date" = "date"))
RaRb
```

    ## # A tibble: 216 × 4
    ## # Groups:   symbol [3]
    ##    symbol date            Ra      Rb
    ##    <chr>  <date>       <dbl>   <dbl>
    ##  1 AAPL   2010-01-29 -0.103  -0.0993
    ##  2 AAPL   2010-02-26  0.0654  0.0348
    ##  3 AAPL   2010-03-31  0.148   0.0684
    ##  4 AAPL   2010-04-30  0.111   0.0126
    ##  5 AAPL   2010-05-28 -0.0161 -0.0748
    ##  6 AAPL   2010-06-30 -0.0208 -0.0540
    ##  7 AAPL   2010-07-30  0.0227  0.0745
    ##  8 AAPL   2010-08-31 -0.0550 -0.0561
    ##  9 AAPL   2010-09-30  0.167   0.117 
    ## 10 AAPL   2010-10-29  0.0607  0.0578
    ## # ℹ 206 more rows
…
#### Step 1A: Get stock prices

Use
[`tq_get()`](https://business-science.github.io/tidyquant/reference/tq_get.md)
to get stock prices.

``` r
stock_prices <- c("AAPL", "GOOG", "NFLX") %>%
    tq_get(get  = "stock.prices",
           from = "2010-01-01",
           to   = "2015-12-31")
stock_prices
```

    ## # A tibble: 4,527 × 8
    ##    symbol date        open  high   low close    volume adjusted
    ##    <chr>  <date>     <dbl> <dbl> <dbl> <dbl>     <dbl>    <dbl>
    ##  1 AAPL   2010-01-04  7.62  7.66  7.59  7.64 493729600     6.42
    ##  2 AAPL   2010-01-05  7.66  7.70  7.62  7.66 601904800     6.43
    ##  3 AAPL   2010-01-06  7.66  7.69  7.53  7.53 552160000     6.33
    ##  4 AAPL   2010-01-07  7.56  7.57  7.47  7.52 477131200     6.32
    ##  5 AAPL   2010-01-08  7.51  7.57  7.47  7.57 447610800     6.36
    ##  6 AAPL   2010-01-11  7.60  7.61  7.44  7.50 462229600     6.30
    ##  7 AAPL   2010-01-12  7.47  7.49  7.37  7.42 594459600     6.23
    ##  8 AAPL   2010-01-13  7.42  7.53  7.29  7.52 605892000     6.32
    ##  9 AAPL   2010-01-14  7.50  7.52  7.47  7.48 432894000     6.28
    ## 10 AAPL   2010-01-15  7.53  7.56  7.35  7.35 594067600     6.18
    ## # ℹ 4,517 more rows
…
``` r
stock_returns_monthly <- stock_prices %>%
    group_by(symbol) %>%
    tq_transmute(select     = adjusted, 
                 mutate_fun = periodReturn, 
                 period     = "monthly", 
                 col_rename = "Ra")
stock_returns_monthly
```

    ## # A tibble: 216 × 3
    ## # Groups:   symbol [3]
    ##    symbol date            Ra
    ##    <chr>  <date>       <dbl>
    ##  1 AAPL   2010-01-29 -0.103 
    ##  2 AAPL   2010-02-26  0.0654
    ##  3 AAPL   2010-03-31  0.148 
    ##  4 AAPL   2010-04-30  0.111 
    ##  5 AAPL   2010-05-28 -0.0161
    ##  6 AAPL   2010-06-30 -0.0208
    ##  7 AAPL   2010-07-30  0.0227
    ##  8 AAPL   2010-08-31 -0.0550
    ##  9 AAPL   2010-09-30  0.167 
    ## 10 AAPL   2010-10-29  0.0607
    ## # ℹ 206 more rows
…
``` r
stock_returns_monthly <- c("AAPL", "GOOG", "NFLX") %>%
    tq_get(get  = "stock.prices",
           from = "2010-01-01",
           to   = "2015-12-31") %>%
    group_by(symbol) %>%
    tq_transmute(select     = adjusted, 
                 mutate_fun = periodReturn, 
                 period     = "monthly", 
                 col_rename = "Ra")
stock_returns_monthly
```

    ## # A tibble: 216 × 3
    ## # Groups:   symbol [3]
    ##    symbol date            Ra
    ##    <chr>  <date>       <dbl>
    ##  1 AAPL   2010-01-29 -0.103 
    ##  2 AAPL   2010-02-26  0.0654
    ##  3 AAPL   2010-03-31  0.148 
    ##  4 AAPL   2010-04-30  0.111 
    ##  5 AAPL   2010-05-28 -0.0161
    ##  6 AAPL   2010-06-30 -0.0208
    ##  7 AAPL   2010-07-30  0.0227
    ##  8 AAPL   2010-08-31 -0.0550
    ##  9 AAPL   2010-09-30  0.167 
    ## 10 AAPL   2010-10-29  0.0607
    ## # ℹ 206 more rows
…
This was also done previously.

``` r
baseline_returns_monthly <- "XLK" %>%
    tq_get(get  = "stock.prices",
           from = "2010-01-01",
           to   = "2015-12-31") %>%
    tq_transmute(select     = adjusted, 
                 mutate_fun = periodReturn, 
                 period     = "monthly", 
                 col_rename = "Rb")
baseline_returns_monthly
```

    ## # A tibble: 72 × 2
    ##    date            Rb
    ##    <date>       <dbl>
    ##  1 2010-01-29 -0.0993
    ##  2 2010-02-26  0.0348
    ##  3 2010-03-31  0.0684
    ##  4 2010-04-30  0.0126
    ##  5 2010-05-28 -0.0748
    ##  6 2010-06-30 -0.0540
    ##  7 2010-07-30  0.0745
    ##  8 2010-08-31 -0.0561
    ##  9 2010-09-30  0.117 
    ## 10 2010-10-29  0.0578
    ## # ℹ 62 more rows
…
``` r
wts <- c(0.5, 0.0, 0.5)
portfolio_returns_monthly <- stock_returns_monthly %>%
    tq_portfolio(assets_col  = symbol, 
                 returns_col = Ra, 
                 weights     = wts, 
                 col_rename  = "Ra")
portfolio_returns_monthly
```

    ## # A tibble: 72 × 2
    ##    date            Ra
    ##    <date>       <dbl>
    ##  1 2010-01-29  0.0307
    ##  2 2010-02-26  0.0629
    ##  3 2010-03-31  0.130 
    ##  4 2010-04-30  0.239 
    ##  5 2010-05-28  0.0682
    ##  6 2010-06-30 -0.0219
    ##  7 2010-07-30 -0.0272
    ##  8 2010-08-31  0.116 
    ##  9 2010-09-30  0.251 
    ## 10 2010-10-29  0.0674
    ## # ℹ 62 more rows
…
Next, supply this two column tibble, with symbols in the first column
and weights in the second, to the `weights` argument in
[`tq_performance()`](https://business-science.github.io/tidyquant/reference/tq_performance.md).

``` r
stock_returns_monthly %>%
    tq_portfolio(assets_col  = symbol, 
                 returns_col = Ra, 
                 weights     = wts_map, 
                 col_rename  = "Ra_using_wts_map")
```

    ## # A tibble: 72 × 2
    ##    date       Ra_using_wts_map
    ##    <date>                <dbl>
    ##  1 2010-01-29           0.0307
    ##  2 2010-02-26           0.0629
    ##  3 2010-03-31           0.130 
    ##  4 2010-04-30           0.239 
    ##  5 2010-05-28           0.0682
    ##  6 2010-06-30          -0.0219
    ##  7 2010-07-30          -0.0272
    ##  8 2010-08-31           0.116 
    ##  9 2010-09-30           0.251 
    ## 10 2010-10-29           0.0674
    ## # ℹ 62 more rows
…
##### Step 3B: Merging Ra and Rb

Now that we have the aggregated portfolio returns (“Ra”) from Step 3A
and the baseline returns (“Rb”) from Step 2B, we can merge to get our
consolidated table of asset and baseline returns. Nothing new here.

``` r
RaRb_single_portfolio <- left_join(portfolio_returns_monthly, 
                                   baseline_returns_monthly,
                                   by = "date")
RaRb_single_portfolio
```

    ## # A tibble: 72 × 3
    ##    date            Ra      Rb
    ##    <date>       <dbl>   <dbl>
    ##  1 2010-01-29  0.0307 -0.0993
    ##  2 2010-02-26  0.0629  0.0348
    ##  3 2010-03-31  0.130   0.0684
    ##  4 2010-04-30  0.239   0.0126
    ##  5 2010-05-28  0.0682 -0.0748
    ##  6 2010-06-30 -0.0219 -0.0540
    ##  7 2010-07-30 -0.0272  0.0745
    ##  8 2010-08-31  0.116  -0.0561
    ##  9 2010-09-30  0.251   0.117 
    ## 10 2010-10-29  0.0674  0.0578
    ## # ℹ 62 more rows
…
First, we need to grow our portfolios. `tidyquant` has a handy, albeit
simple, function,
[`tq_repeat_df()`](https://business-science.github.io/tidyquant/reference/tq_portfolio.md),
for scaling a single portfolio to many. It takes a data frame, and the
number of repeats, `n`, and the `index_col_name`, which adds a
sequential index. Let’s see how it works for our example. We need three
portfolios:

``` r
stock_returns_monthly_multi <- stock_returns_monthly %>%
    tq_repeat_df(n = 3)
stock_returns_monthly_multi
```

    ## # A tibble: 648 × 4
    ## # Groups:   portfolio [3]
    ##    portfolio symbol date            Ra
    ##        <int> <chr>  <date>       <dbl>
    ##  1         1 AAPL   2010-01-29 -0.103 
    ##  2         1 AAPL   2010-02-26  0.0654
    ##  3         1 AAPL   2010-03-31  0.148 
    ##  4         1 AAPL   2010-04-30  0.111 
    ##  5         1 AAPL   2010-05-28 -0.0161
    ##  6         1 AAPL   2010-06-30 -0.0208
    ##  7         1 AAPL   2010-07-30  0.0227
    ##  8         1 AAPL   2010-08-31 -0.0550
    ##  9         1 AAPL   2010-09-30  0.167 
    ## 10         1 AAPL   2010-10-29  0.0607
    ## # ℹ 638 more rows
…
Now just pass the expanded `stock_returns_monthly_multi` and the
`weights_table` to `tq_portfolio` for portfolio aggregation.

``` r
portfolio_returns_monthly_multi <- stock_returns_monthly_multi %>%
    tq_portfolio(assets_col  = symbol, 
                 returns_col = Ra, 
                 weights     = weights_table, 
                 col_rename  = "Ra")
portfolio_returns_monthly_multi
```

    ## # A tibble: 216 × 3
    ## # Groups:   portfolio [3]
    ##    portfolio date              Ra
    ##        <int> <date>         <dbl>
    ##  1         1 2010-01-29 -0.0489  
    ##  2         1 2010-02-26  0.0482  
    ##  3         1 2010-03-31  0.123   
    ##  4         1 2010-04-30  0.145   
    ##  5         1 2010-05-28  0.0245  
    ##  6         1 2010-06-30 -0.0308  
    ##  7         1 2010-07-30  0.000600
    ##  8         1 2010-08-31  0.0474  
    ##  9         1 2010-09-30  0.222   
    ## 10         1 2010-10-29  0.0789  
    ## # ℹ 206 more rows
…
##### Steps 3B and 4: Merging and Assessing Performance

These steps are the exact same as the Single Portfolio example.

First, we merge with the baseline using “date” as the key.

``` r
RaRb_multiple_portfolio <- left_join(portfolio_returns_monthly_multi, 
                                     baseline_returns_monthly,
                                     by = "date")
RaRb_multiple_portfolio
```

    ## # A tibble: 216 × 4
    ## # Groups:   portfolio [3]
    ##    portfolio date              Ra      Rb
    ##        <int> <date>         <dbl>   <dbl>
    ##  1         1 2010-01-29 -0.0489   -0.0993
    ##  2         1 2010-02-26  0.0482    0.0348
    ##  3         1 2010-03-31  0.123     0.0684
    ##  4         1 2010-04-30  0.145     0.0126
    ##  5         1 2010-05-28  0.0245   -0.0748
    ##  6         1 2010-06-30 -0.0308   -0.0540
    ##  7         1 2010-07-30  0.000600  0.0745
    ##  8         1 2010-08-31  0.0474   -0.0561
    ##  9         1 2010-09-30  0.222     0.117 
    ## 10         1 2010-10-29  0.0789    0.0578
    ## # ℹ 206 more rows
…
